<?xml version="1.0" encoding="utf-8"?>
<!-- Generator: Adobe Illustrator 24.0.3, SVG Export Plug-In . SVG Version: 6.00 Build 0)  -->
<svg version="1.1" id="Layer_1" xmlns="http://www.w3.org/2000/svg" xmlns:xlink="http://www.w3.org/1999/xlink" x="0px" y="0px"
	 viewBox="0 0 1000 1000" style="enable-background:new 0 0 1000 1000;" xml:space="preserve">
<style type="text/css">
	.st0{fill:#CE0E2D;}
</style>
<g id="_x35_">
	<g>
		<path class="st0" d="M909.5,390.2c27.7-45.1,30.9-102,27.2-154.4c2.8-30.2-1.8-60.6-13.5-88.5c-8.3-62-50.7-116.2-115.2-135.6
			c-80.4-24.1-142.2,23.8-207,63.8c-14.9,9.2-30.3,17.9-46,25.8c-13.9,7-29.4,9.7-44,15.5c-31.2,12.5-62.7,24.4-93.5,38
			c-79.2,35.2-158.7,73.7-229.2,124.7C125.8,325,69.5,382.8,40.7,455.8c-10.8,27.2-17.2,55.9-20.6,84.9c-6.3,53.6-9.9,104.3-8,158.4
			c1.1,32.2,0,65.7,7.5,97.2c11.1,46.5,45.2,80.8,83.9,106.7c89.6,60.1,188.4,93.7,295.9,89.3c108.6-4.5,226.1-39.8,300-120.8
			c37.2-40.8,73.7-91.5,104.5-137.2c30.7-45.6,41.3-94.3,45.2-149.7c2.5-35.2-0.2-71.4,8.4-105.9
			C866.2,443.3,891.1,420.2,909.5,390.2z M903.5,129.4c-0.3,1.1-0.2,2.3,0.5,3.6c0.5,1,1,2,1.5,2.9c5.5,20.1,6.9,41.5,3.4,63.3
			c-3.8,23-13.4,43.1-26,61.5c-0.5,0.1-1.1,0.2-1.6,0.7c-32.5,29.8-60.8,63.2-96.6,89.5c-38.9,28.5-82.9,46.3-131.2,50
			c-47.3,3.6-91.6-6.7-136.9-18.8c-35.5-9.5-70.6-17-106.4-9.5c48.2-60,146.2-37.4,196.3-94.8c4.6,7.7,10.3,15.1,16.8,21.7
			c-8.6,10.5-17.5,20.9-26.4,31.2c-15.4,2.8-30.6,6.8-45.9,10.4c-1.7,0.4-1.4,3.2,0.3,2.8c14.4-3.4,28.9-6.5,43.2-10.5
			c-1,1.2-2,2.4-3.1,3.5c-5.6,6.3-11.5,12.4-17.3,18.6c-15.6,4-31.3,7.5-47.4,10.1c-1.9,0.3-1.6,3.3,0.4,3.1
			c14.1-2,28.3-4.5,42.2-7.8c-3.8,4.2-7.4,8.5-10.7,13c-0.8,1.1,0.6,2.8,1.8,1.8c6.7-5.2,13-11.1,19.1-17.4
			c4.4-1.2,8.8-2.5,13.2-3.9c-5.3,6.1-10.4,12.3-14.8,18.9c-0.6,0.9,0.5,2.3,1.4,1.5c7.8-7,14.9-15,21.8-23.2
			c3.7-1.3,7.4-2.7,11-4.1c1.4-0.6,0.6-2.5-0.8-2.1c-2.2,0.6-4.4,1.2-6.5,1.9c5.3-6.5,10.6-13,16-19.3c1.2-1.4-1-3.2-2.3-1.8
			c-6.8,7.8-14.2,15.4-21.3,23.3c-4.2,1.2-8.4,2.3-12.6,3.5c14.8-16.1,28.1-34.3,40.9-51c24.7,24.2,59.5,38.4,89.7,27.7
			c0.1,0,0.1-0.1,0.1-0.1c52.1-6.2,104.5-51.5,117.6-100.3c7.3-26.9,0-57.9-20.9-76.9c-5.7-5.2-12.2-9.2-19.2-12.1
			c25.8-25,39.8-68.5,29.5-103.9C860.8,54.6,890.5,88.8,903.5,129.4z M746.9,544.9c-6.2,42-19.1,81.1-40.8,117.4
			c-46.5,47.9-121.5,41.3-186.4,22c16.9-9.3,33.8-18.8,50.5-28.5c8.8-0.7,17.7-1.6,26.4-2.7c-10.3,5.5-20.4,11.3-30.5,17
			c-7.6,0.8-15.1,1.5-22.7,2.3c-1.6,0.2-1.4,2.7,0.3,2.5c5.6-0.5,11.2-1.1,16.7-1.6c-4.5,2.6-9,5.2-13.5,7.7
			c-1.6,0.9-0.1,3.8,1.6,2.9c7.1-3.8,14.1-7.7,21.2-11.5c12.2-1.2,24.4-2.4,36.5-3.8c-12.1,6.6-24.3,13.1-36.4,19.8
			c-0.4,0.2-0.2,0.8,0.2,0.6c16.1-5.4,32-13,47-21.8c2.3-0.3,4.6-0.5,6.8-0.9c0.8-0.1,0.6-1.3-0.1-1.2c-1.2,0.1-2.4,0.2-3.6,0.3
			c9.2-5.5,18-11.5,26.4-17.8c0.8-0.6-0.1-1.8-0.9-1.3c-11.5,6.8-23.2,13.3-34.8,19.7c-11.7,0.9-23.4,1.9-35.1,3.1
			c10.5-5.7,21-11.5,31.2-17.6c0.5-0.1,1-0.1,1.4-0.2c0.9-0.1,1.2-0.8,1.2-1.4c4.4-2.6,8.7-5.2,13-7.9c1-0.7,0.1-2.4-1-1.9
			c-5.6,2.7-11.1,5.5-16.6,8.4c-8.1,0.1-16.2,0.5-24.3,1c10.4-6.2,20.8-12.5,31-19.1c0.6-0.4,0-1.4-0.6-1
			c-12.2,6.6-24.2,13.5-36.2,20.6c-10.8,0.8-21.6,1.8-32.4,2.9c25.1-13.6,49.8-28.4,72.7-44.7c0.9-0.6,0.1-2.3-1-1.7
			c-28.4,15.4-56.3,31.7-84.3,47.7c-7.6,0.8-15.2,1.5-22.7,2.1c-2.4,0.2-2,4,0.4,3.8c4.6-0.4,9.1-0.7,13.7-1
			c-8.8,5-17.6,10-26.5,14.9c-0.9,0.5-0.7,1.6-0.1,2.3c-9.6-3.4-18.9-7-27.6-10.6c-9-3.7-17.5-8.1-25.8-12.8
			c11.9-5.1,23.8-11.1,35.4-17.7c10.9-1.3,21.8-3.4,32.5-6.2c-13.6,9-27,18.3-39.7,28.2c-0.2,0.2,0,0.5,0.3,0.3
			c17.2-9.6,34-20.5,50.4-31.7c0.9-0.3,1.9-0.5,2.8-0.9c0.5-0.2,0.5-0.9,0.1-1.2c8.7-6,17.4-12.1,25.9-18.1c0.8-0.6-0.1-1.7-0.9-1.2
			c-11,6.8-22.1,13.7-33.1,20.8c-10,2-20.1,3.8-30.2,5.1c7.7-4.7,15.3-9.6,22.7-14.7c3.1-0.4,6.2-0.7,9.3-1.1c0.6-0.1,0.5-1-0.1-0.9
			c-2.3,0.1-4.5,0.3-6.8,0.4c7.6-5.3,15-10.8,22.2-16.3c0.9-0.7-0.1-2-1-1.4c-9.6,6.2-19.2,12.2-29,18.1
			c-14.8,0.8-29.6,1.6-44.5,2.3c5.3-2.7,10.5-5.5,15.7-8.2c8.1-0.5,16.2-1,24.2-1.7c1.2-0.1,1.2-1.9,0-2.1c-5-0.6-10-0.9-15.2-1
			c16.1-8.5,32-17.3,47.6-26.9c0.5-0.3,0-1.1-0.5-0.9c-16.3,9-32.4,18.5-48.6,27.7c-10.8-0.3-21.9,0.2-32.8,1.3
			c16.5-9.3,32.3-20.1,47-30.6c0.8-0.6-0.1-1.7-0.9-1.2c-19,11.7-38.8,22.3-58.2,33.3c-8.2,1.2-16.2,2.8-24,4.7
			c-0.5,0.1-0.4,0.8,0.1,0.8c5.4-0.4,10.8-0.7,16.2-1c-6.6,3.9-13.2,7.8-19.6,11.9c-0.3,0.2,0,0.5,0.2,0.4c3.8-1.3,7.5-2.8,11.2-4.4
			c-0.1,0.8,0.4,1.7,1.4,1.7c9.9,0,19.8-0.3,29.7-0.6c-7,3.7-14,7.3-21.1,10.7c-0.3,0.1-0.1,0.6,0.2,0.5c7-3.8,14-7.5,21-11.2
			c15.8-0.6,31.5-1.7,47.2-3.4c-8.2,5-16.3,10-24.5,15c-16.5,1.7-33.1,2.4-49.8,1.7c-1.8-0.1-2.3,2.7-0.4,2.9
			c14.4,1.1,28.6,1.1,42.7-0.1c-8.7,5.4-17.4,10.8-25.9,16.3c-25.4-14.6-48.4-32.9-72.8-49.3c11.5-5.3,22.7-11.4,33.6-18.1
			c9.8,0,19.5-0.1,29.3-0.3c-16.1,8.6-32.8,16.6-48.2,26.4c0,0,0,0.1,0,0.1c19.3-7.1,38.3-16.4,56.9-26.7c8.7-0.2,17.3-0.5,26-1
			c1-0.1,0.8-1.6-0.2-1.6c-7.2-0.1-14.3,0-21.5,0.1c15.2-8.6,30-17.7,44.2-26.7c0.7-0.4,0-1.7-0.7-1.3
			c-17.5,9.2-34.8,18.8-52.1,28.2c-10.5,0.3-20.9,0.7-31.4,1.2c12.9-8,25.4-16.7,37.4-25.6c0.5-0.4-0.1-1.1-0.6-0.8
			c-13.9,9.3-28.1,18-42.4,26.6c-5.8,0.3-11.7,0.5-17.6,0.8c-0.3,0-0.3,0.5,0.1,0.5c5.2,0,10.3-0.1,15.5-0.1
			c-9.7,5.8-19.4,11.7-29,17.7c-5.6-3.7-11.2-7.4-16.9-10.8c-0.8-0.5-1.6-0.9-2.4-1.4c19.9-8.8,39.2-17.9,57.1-30.5
			c0.7-0.5-0.1-1.4-0.7-1c-18.5,11-37.1,22.4-56.7,31.3c-4.6-2.7-9.6-5.6-15-8.4c26-13.5,52-27.6,76.4-43.5c0.8-0.5,0.1-1.9-0.8-1.5
			c-26.1,13.3-51.5,28.9-76.2,44.7c-16.8-8.7-39.9-18.5-60.1-20.1c31.6-11.8,48-40.9,60.2-74.8c10.6-29.6,24.2-55.1,54.9-67.1
			c27.7-10.8,58-8.8,86.4-2.7c54.4,11.6,104.2,31.4,160.9,29.9c48.5-1.3,95.2-14.6,137.9-37.4c-0.6,1.7-1.2,3.4-1.8,5.2
			C756.8,457,753.4,501.1,746.9,544.9z M215.6,782.2c15.4-2.6,30.8-5.5,45.9-10c21.2,3.9,42.1,8.9,62.5,16
			c31.2,10.9,63.7,32,97.3,40c-63.3,3.5-128.3-8.2-188-35.1c-19.3-8.7-38.2-19.1-56.2-31.2c2.7,0,5.8,0.2,5.9,0.2
			c6.2,0.1,12.5,1.2,18.7,1.8c12.4,1.3,24.8,2.7,37.2,4.5c4.7,0.7,9.3,1.4,14,2.2c-12.7,1.9-25.2,4.7-37.7,7.6
			C212.7,778.9,213,782.7,215.6,782.2z M375.1,800.5c-20.4-9.1-40.6-18.2-62.1-24.7c-47.5-14.4-98.1-20.3-147.5-22.8
			c-0.3,0-0.7,0-1,0.1c-8.8-6.5-17.3-13.4-25.4-20.7c6,0.3,11.9-0.2,17.9-0.8c0.1,0.2,0.2,0.3,0.4,0.2c0.1-0.1,0.2-0.2,0.3-0.3
			c7.3-0.9,14.5-2,21.9-2.4c8.6-0.5,17.2-0.5,25.7-0.3c-2.9,3-5.7,6.1-8.4,9.3c-0.2,0.2,0.1,0.5,0.3,0.4c4.1-3.1,8.1-6.4,12.2-9.6
			c10.2,0.5,20.5,1.4,30.6,2.9c40.3,6,78.2,21.3,115.4,37.2c46.5,19.7,96,41.6,146.9,46.1c-16.4,4.5-33.1,7.9-50.1,10.2
			C425.4,818.8,400.5,811.9,375.1,800.5z M198.7,718.5c8.1-2,16.1-4.1,24.2-6.2c-2.7,2.4-5.4,4.8-8,7.2
			C209.6,719,204.2,718.7,198.7,718.5z M242.2,722.5c1.2-0.3,2.4-0.6,3.6-0.8c-0.5,0.4-1,0.8-1.5,1.2
			C243.5,722.7,242.8,722.6,242.2,722.5z M325.5,746.2c-25.3-9.9-51.2-18.1-77.9-22.8c1.3-1,2.7-2,4-3c6.9-1.5,13.8-3,20.7-4.4
			c-2.9,2.2-5.6,4.6-8.4,7c-1.7,1.6,0.4,4.5,2.1,2.9c4.6-4.2,9.5-8,14.5-11.6c11.9-2.4,23.8-4.7,35.7-7.1c0.9-0.2,0.7-1.5-0.2-1.4
			c-9.8,1.1-19.6,2.5-29.3,4.1c5.1-3.3,10.3-6.5,15.6-9.4c1.1-0.6,0.5-2.5-0.8-1.9c-8.3,3.3-15.9,7.8-23.2,12.8
			c-6.8,1.2-13.5,2.5-20.2,3.9c15.2-11.4,30.4-23,45-35.1c0.6-0.5-0.1-1.5-0.7-1c-17.2,11.9-33.8,24.6-50.3,37.4
			c-6.7,1.4-13.4,2.9-20,4.5c-1.3-0.2-2.6-0.4-3.9-0.5c-2.6-0.3-5.3-0.5-8-0.8c4-3.4,8.1-6.8,12.1-10.2c14-3.8,27.9-7.7,41.9-11.7
			c0.6-0.2,0.3-1.2-0.3-1c-12.4,2.8-24.7,5.7-37,8.7c10.1-8.7,20.1-17.5,30.5-25.8c0.6-0.5-0.1-1.4-0.7-1
			c-13.1,9.1-26.3,18.6-38.8,28.9c-13.6,3.3-27.2,6.9-40.8,10.5c-5.1,0-10.3,0.3-15.3,0.7c10.1-9,19.9-18.3,30.1-27.1
			c15.2-13.1,30.9-25.4,46.3-38.2c1.1-1-0.1-2.7-1.4-1.9c-28.3,18.8-56.8,42-80,67.7c-11.5,1.4-22.4,4.3-31.7,9.2
			c-2.8-2.6-5.4-5.2-8.1-7.9c12.6-12.9,25.8-25.1,39.5-36.8c0.5-0.5-0.1-1.3-0.6-0.9c-14.4,11-27.7,23.2-40.4,36.1
			C95,688,71.9,650.3,62.5,607c22.7-10.8,45.4-17.2,68-20.3c-19.4,14-41,31.6-53.2,52c-0.3,0.5,0.4,1,0.8,0.6
			c9.2-7.1,16.8-16.2,25.1-24.2c10.1-9.9,20.6-19.4,31.1-28.9c93.5-11.1,185.2,35.5,270.5,78.6c72.5,36.7,192,98.1,269.4,42
			c-38.8,45.6-87.7,78.4-141.6,98.5C458.6,807,394,772.9,325.5,746.2z M519.3,684.1c-7.9-2.4-15.7-4.9-23.2-7.6c0.1,0,0.3,0,0.4-0.1
			c12-5.8,24-11.9,35.9-18.2c10.7-0.7,21.3-1.3,32-2.1C549.3,665.3,534.3,674.6,519.3,684.1z M457.9,616.5
			c-11.7,0.5-23.3,0.9-35,1.2c5.2-2.3,10.4-4.8,15.6-7.5c11.4-0.6,22.8-1.2,34.2-1.9C467.8,611.1,462.8,613.8,457.9,616.5z
			 M605.4,439.9c-56.5-2.9-107.6-31.8-163.7-35.1c-34.3-2-71.8,6.7-94.3,34.4c-14.1,17.3-19.3,39.6-27.1,60.1
			c-12.7,33.6-35.5,56.9-71.7,63.3c-2.6,0.5-2.2,4.4,0.5,4.2c0.7-0.1,1.4-0.2,2.1-0.3c1.8,1.2,4,2.5,4.2,2.6
			c24,7.4,47.7,7.3,71.3,18.8c23.9,11.6,45.1,27.7,66.5,43.2c39.2,28.3,79.2,47.6,126,60.1c43.2,11.6,104.3,24.1,151,8.4
			c-46.7,32.1-110.2,20.5-161.3,2.9c-59.8-20.6-114.5-53-171.5-79.7c-81.9-38.4-192.1-70.1-275.7-19.2c-1.5-7.5-2.6-15.1-3.2-22.8
			c-0.2-2.9-0.4-5.8-0.4-8.7c0.6,0.6,1.4,1,2.5,1c4.9,0,9.8-0.1,14.8-0.2c0.2,0.2,0.6,0.4,0.8,0.1c0.1,0,0.1-0.1,0.2-0.1
			c49.5-0.9,101-6.1,146.7-25c50.4-20.9,81-59.8,106.6-106.5c30.9-56.4,57.4-111.8,121.7-135.6c48.4-17.9,100.4-22.2,146.7-45.4
			c1.7,4.7,3.8,9.3,6.2,13.8c-58,55.7-160.7,32.9-207.9,102.9c-2.5,3.7,0.7,8.1,5,6.8c51.3-15.5,101.7,5.1,151.5,17
			c42.7,10.2,87.5,13.3,130.8,5.1c48.1-9.2,91.9-34,130.2-65.8c-14.7,17.7-27.2,36.2-36.5,57.7c-0.6,0.1-1.1,0.2-1.7,0.6
			C724,428.2,665,443,605.4,439.9z M124.5,512.6c4.4-1.3,8.9-2.5,13.3-3.7c-18.2,18.9-36.8,37.5-55.4,56.1
			c-7.6,0.5-15.2,0.9-22.7,1.4c-0.7,0-1.3,0.3-1.7,0.6c0-0.2,0-0.4,0-0.7c22-23.3,42.7-48.5,62.5-74.2c13.3-1.7,26.6-4,39.8-6.9
			c-6.3,6.7-12.6,13.2-18.9,19.8c-5.9,1.8-11.9,3.5-17.8,5.3C122.2,510.8,123.1,513,124.5,512.6z M642.1,194.1
			c-8.3,3.7-16,8.7-23.6,13.8c1.9-4.3,4.1-8.3,6.6-12c9.5-5.4,19.1-11,28.5-16.8c0.1,0.2,0.3,0.3,0.6,0.3
			c16.6-5.2,33-14.9,47.7-23.9c0.8-0.5,0.1-1.8-0.8-1.4c-12.1,5-25,10.5-36.6,17.4c0-0.7-0.7-1.5-1.6-1.1
			c-10.3,3.9-20.6,9.6-30.1,16c4-4.3,8.4-8.2,13.2-11.7c10.7-5.2,21.3-10.7,31.7-16.4c18.2-6.5,37.8-9.9,55.8-11.2
			c19.3-1.4,40.2,0.6,56.4,10.3c-11.3,4.1-22.3,8.6-33.9,11.8c-6.9-0.4-13.8,0.2-20.7,1.6c2.7-1.6,5.3-3.3,7.8-5.1
			c0.9-0.6,0.1-2-0.9-1.6c-17.3,6.6-35,13.6-51.6,21.8c-2.4,1.2-1,4.4,1.5,3.7c0.8-0.2,1.5-0.4,2.3-0.6c-3.1,2.2-6,4.4-8.8,6.8
			c-8.2,3.6-16.4,7.1-24.6,10.7c-1.7,0.7-0.7,3.1,1,2.6c5.5-1.7,10.8-3.7,15.9-6.1c-12.2,12.3-22,27.7-26.4,44.3
			c-10.9,4.4-21.5,9.3-31.7,14.9c-1.1-2.3-2.1-4.6-2.9-6.9c3.7-1.8,7.3-3.9,10.8-5.8c6.6-3.5,13.1-7.4,19.4-11.5
			c0.8-0.6,0.1-1.9-0.9-1.5c-7.6,3.3-15,7.1-22.3,11.1c-2.7,1.5-5.5,2.9-8.2,4.5c-0.7-2.2-1.3-4.5-1.8-6.8
			c7.2-4.9,14.6-9.7,21.9-14.5c0.7-0.4,0.1-1.5-0.7-1.2c-7.6,3.5-14.8,7.8-21.8,12.5c-0.7-4.9-0.9-9.8-0.4-14.8c0.1,0,0.2,0,0.3-0.1
			c8.8-4.3,17.2-9.8,24.1-16.8c0.9-0.9-0.5-2.1-1.5-1.5c-7.6,4.2-14.9,9-22.2,13.6c0.5-2.7,1.2-5.4,2.1-8c9.3-5.5,19-11,27.4-17.9
			C644.3,195.4,643.4,193.5,642.1,194.1z M801.1,165.9c3.9,3.9,7.2,8.6,9.9,14c5.5,11,7.6,23.4,7,35.8
			c-5.9-16.4-18.7-30.7-33.9-38.8c-0.1-0.1-0.2-0.1-0.4-0.2c5.9-2.7,11.8-5.6,17-9.3C801.3,167,801.3,166.4,801.1,165.9z M649,261.7
			c-4.2,2.2-8.1,4.9-11.9,7.6c-3,2.1-6.1,4.2-9,6.6c-2.8-3.9-5.3-7.9-7.4-12c10.3-4.3,20.4-9.3,30.3-14.7
			C650,253.3,649.3,257.5,649,261.7z M639.6,272.8c3.2-2.1,6.3-4.4,9.2-6.8c0,2.1,0.1,4.3,0.2,6.4c-5.6,2.4-11.1,5.7-16.4,9.4
			c-0.8-1-1.6-2-2.4-3C633.5,276.9,636.6,274.8,639.6,272.8z M649.5,276.4c0.2,1.7,0.5,3.5,0.9,5.2c0.9,4,2.1,7.9,3.6,11.6
			c-1.8,1.4-3.6,2.8-5.5,4.1c-4.2-3.5-8.2-7.2-11.9-11.2C641.1,283.2,645.6,280,649.5,276.4z M655.1,296c1.6,3.6,3.5,7.1,5.7,10.4
			c-3.2-2.1-6.3-4.3-9.4-6.6C652.8,298.6,654,297.4,655.1,296z M663.5,267.8c0-24.8,13.9-48.4,33.4-63c20.1-15.1,49.6-26,74.4-16.4
			c25.2,9.7,45.3,43.2,35.3,70.5c-9.9,26.8-53.2,47.3-79,53.1c-17.6,4-33.3,10.6-48.3-3.4C668.7,298.6,663.5,282.2,663.5,267.8z
			 M799.5,165.2c-7.2,2.1-14.1,5.6-20.8,9.1c-3.5-1.5-7-2.6-10.6-3.5c9-2.6,17.5-6.1,25.4-11.3c2.4,1.7,4.7,3.6,6.9,5.7
			C800.1,165.2,799.8,165.1,799.5,165.2z M814,32.5c3.8,16.8,6.9,32.5,3.7,50.7c-3.7,21-13.6,39.6-26.5,56.2
			c-10.2-4.1-21.2-6.2-32.4-7C791.4,108.5,808.4,63,789.6,25C798,26.8,806.2,29.4,814,32.5z M602.9,91c9.2-6.1,18.2-12.4,27.1-18.5
			C657.5,53.6,684.6,36,718.4,27c-30.2,31.6-61.4,62.6-89.1,96.5c-0.8,1,0.6,2,1.4,1.2c31.8-30.9,60.3-65,89.6-98.2
			c11.7-3,23.7-4.8,36.2-4.9c8-0.1,15.9,0.5,23.6,1.7c10.9,26.3,15.6,52.3,1,79.3c-6.9,12.8-16.9,22.5-28.6,29.5
			c-8.4-0.3-16.8,0.1-24.7,0.8c-56.8,5.3-133.2,31.5-134.5,100.2c-0.1,6.7,0.8,13.4,2.6,20.1c-47.3,24.1-101.3,28.1-150.8,46.2
			c-49.4,18-80.6,50.7-104.1,97.2c-28.3,55.9-50.8,110.9-110.9,139.6c-45.2,21.6-95,25.6-144.4,28.6c20.8-18.2,40.6-37.6,59.3-57.9
			c10-2.8,20-5.6,30-8.5c-4.7,4-9.3,8.2-13.8,12.4c-5.2,1.6-10.5,3.1-15.7,4.7c-2.1,0.6-0.8,3.7,1.2,3.1c2.9-0.8,5.8-1.7,8.8-2.5
			c-14.7,13.7-29,27.9-43.8,41.8c-0.3,0.2,0.1,0.6,0.3,0.4c14.8-15.3,31-29.4,47.5-43.3c10.4-2.9,20.8-5.9,31.1-8.9
			c-8.2,7-16.5,13.8-25,20.5c-6.4,1.7-12.9,3.4-19.3,4.9c-2.9,0.7-2.4,5.4,0.6,4.7c3.2-0.7,6.4-1.5,9.6-2.2c-1,0.8-2,1.7-3,2.5
			c1.2-0.9,2.3-1.8,3.5-2.6c13.2-3.2,26.2-6.7,39.1-10.8c-9.3,8.1-18.6,16.1-28.2,23.9c-1.5,1.2,0.2,3.6,1.8,2.4
			c12.8-9.6,25.3-19.6,37.5-30c10.4-3.6,20.7-7.6,30.8-12.1c1.4-0.6,0.6-2.8-0.9-2.3c-7.2,2.4-14.3,4.7-21.5,7
			c18.4-16.4,35.8-33.9,51.6-52.9c0.4-0.5-0.3-1.3-0.8-0.8c-20.3,19.3-40.7,38.5-61.6,57c-12.5,3.9-25,7.6-37.6,11
			c9.1-6.9,18-13.9,26.7-21.1c8.5-2.6,17-5.2,25.4-8.1c1.2-0.4,0.7-2.5-0.5-2.2c-6.1,1.4-12.1,3-18.1,4.6c17.7-14.8,34.7-30.3,51-47
			c0.2-0.2-0.1-0.5-0.3-0.3c-17.6,16.3-35.6,32.5-53.9,48.2c-10.4,2.8-20.7,5.9-31.1,8.9c5.1-4.2,10.1-8.5,15.2-12.7
			c9.7-2.8,19.3-5.7,28.8-8.9c1-0.3,0.6-2-0.4-1.8c-7.7,1.9-15.4,4-23,6.1c3.8-3.2,7.5-6.4,11.2-9.7c0.9-0.8-0.1-2.3-1.1-1.6
			c-5.6,4.2-10.9,8.5-16.2,13c-10.7,3-21.3,6.1-31.9,9.3c5.7-6.2,11.2-12.5,16.7-18.9c22.8-5.3,45.1-12.4,66.3-22.1
			c1.1-0.5,0.5-2.2-0.7-1.8c-20.2,6.9-40.5,13.2-61.1,18.5c5.8-6.9,11.6-13.8,17.3-20.9c0.5-0.6-0.4-1.3-0.9-0.7
			c-6.9,7.7-13.9,15.2-20.9,22.7c-13.8,3.4-27.8,6.3-41.9,8.6c7.6-9.8,15-19.7,22.4-29.6c0.7-0.9-0.6-1.9-1.3-1.1
			c-29.9,33.1-60.2,67.6-86.3,103.8c1.5-45.2,21.2-84.4,45.3-123.2c24.6-39.6,50.2-79,81.4-113.8C253.6,248.2,348,213.3,440.3,175
			c-8.5,8.9-17.3,17.6-26.3,26c-17.2,2.7-34.5,5.2-51.9,7c-0.3,0-0.3,0.5,0.1,0.5c16.8-1.8,33.5-3.7,50.2-6
			c-12.3,11.6-25,22.8-37.8,33.7c-8.4,1.8-16.8,3.7-25.3,5.3c-1.9,0.4-1.6,3.4,0.4,3c6.5-1.2,12.9-2.4,19.4-3.6
			c-9.7,8.2-19.5,16.3-29.3,24.3c-0.7,0.6,0.1,1.7,0.8,1.1c11.5-8.3,22.5-17.2,33.3-26.4c10.7-2.1,21.4-4.3,32.1-6.6
			c-7.8,7.4-15.5,14.9-23.1,22.5c-11.4,2-22.8,3.6-34.4,5c-1.8,0.2-1.5,3.1,0.3,2.9c10.1-1.1,20.2-2.5,30.3-4.1
			c-4.4,4.4-8.6,8.9-12.9,13.4c-21.5,4.3-43,8.3-64.6,11.7c-2,0.3-1.6,3.4,0.4,3.1c20.5-3,41.1-6.1,61.7-9.7c0.1,0,0.2,0,0.3,0
			c27-4.7,53.8-10.2,80.2-17c0.1,0.5,0.7,1,1.2,0.5c0.4-0.4,0.8-0.8,1.3-1.2c8-2.1,16-4.3,24-6.6c1.3-0.4,0.8-2.7-0.6-2.4
			c-5.8,1.2-11.6,2.4-17.4,3.6c6.5-6,13-12.1,19.3-18.3c2.2-0.8,4.4-1.5,6.6-2.3c1-0.4,0.4-1.8-0.6-1.5c-1,0.3-2.1,0.6-3.1,0.9
			c31.2-30.9,60.2-64.1,89.9-96.5c0.2-0.2-0.2-0.5-0.3-0.3c-31.1,34-64.5,65.8-96.6,98.8c-10.6,3.1-21.3,6-32,8.7
			c8.3-8.4,16.5-16.8,24.6-25.4c2.6-0.8,5.2-1.6,7.8-2.4c1.1-0.4,0.7-2.3-0.5-2.1c-1.3,0.3-2.6,0.6-3.9,0.9
			c28.1-29.7,55.3-60.2,82.8-90.3C559.7,111.1,586.6,101.9,602.9,91z M416.2,262.7c-15,3.2-30.1,6.3-45.1,9.4c5-4.5,9.9-9,14.8-13.5
			c13.7-2.3,27.2-5.1,40.7-8.4c-3.5,3.8-7,7.5-10.5,11.3C415.7,262,415.9,262.4,416.2,262.7z M431.4,249c11.2-2.8,22.2-6.1,33.1-9.7
			c-5.3,5.5-10.5,11-15.7,16.6c-10.3,2.1-20.6,4.3-31,6.5C422.4,258,426.9,253.5,431.4,249z M430.5,246c-13.4,3.3-26.8,6.1-40.4,8.6
			c8-7.6,16-15.2,23.9-23c13.4-3.1,26.7-6.5,39.9-10.4C446.1,229.5,438.2,237.7,430.5,246z M411.9,227.8
			c-10.8,2.5-21.6,5.1-32.4,7.5c12.1-10.6,23.8-21.6,35.2-33c9.9-1.4,19.8-2.9,29.6-4.6C433.5,207.7,422.6,217.7,411.9,227.8z
			 M416.2,200.7c8.5-8.5,16.8-17.2,25-26.1c17.3-7.2,34.5-14.5,51.5-22.3c-15.2,14.6-30.7,28.9-46.2,43.2
			C436.5,197.4,426.4,199.1,416.2,200.7z M458,217.1c-12.8,2.9-25.5,5.9-38.3,8.9c9.7-9.6,19.3-19.3,28.9-29c11.5-2,23-4.3,34.4-6.9
			c0.7-0.2,0.6-1.3-0.1-1.2c-10.7,2-21.4,4-32.1,5.9c14.2-14.4,28.4-28.7,43-42.7c0,0,0-0.1,0-0.1c17.5-8,34.8-16.5,51.5-25.7
			C516.6,157,487.1,186.9,458,217.1z M40,491.7c20.3-77.7,73.2-140.8,135.2-189.7c71.5-56.3,154.5-97.1,237.1-134.3
			c40.6-18.3,82.1-33.7,123.2-50.7c-121.9,64.5-263.8,95.2-358.9,201.2c-33.5,37.3-60.7,80-86.9,122.7
			C66,479.6,46.9,519.3,46.8,565.6c-0.3,93.9,63.6,171.2,141.1,216.8c56.8,33.4,121.7,52.8,187.4,56.8c33,2,66.3,0.2,98.9-5.7
			c15.7-2.8,31.4-6.5,46.6-11.4c61.1-19.9,116.7-53.4,159.9-102c64.8-72.9,79.5-160,96.1-252.8c10-55.8,31.9-99.8,68.9-142.2
			c28.7-32.9,60-64.4,72.3-107.5c2.5-8.6,4.2-17.3,5.3-26c1.3,8.3,2,16.6,2.1,25.1c-0.5,0.8-0.9,1.8-0.9,2.9c0,5.3,0,10.6,0,15.9
			c-0.4,3.8-0.9,7.6-1.5,11.4c-7,41.2-29.6,71.6-55.1,103.3c-50.8,63.3-53.3,135.4-66.7,212.3c-28.4,163-165.8,272.3-323.8,298.7
			C336.3,884.6,176.7,848.6,76,742.3c-13-13.7-26.4-28.6-34.8-45.7C30.7,675.1,30,650.2,29,626.8C27,581.6,28.5,535.6,40,491.7z
			 M31.7,788.9c-0.1-0.5-0.2-0.9-0.3-1.4c0.9,1.9,1.8,3.8,2.7,5.6C33.3,791.7,32.5,790.3,31.7,788.9z M418.7,972.7
			c-10.6,0.6-21.2,0.9-31.9,0.9h0c8.5-4.3,17-8.7,25.5-13.1c11.9-0.7,23.8-1.8,35.7-3.4c-9.1,5.2-18.3,10.2-28.1,14.4
			C419.4,971.6,419,972.1,418.7,972.7z M370.3,941.2c-3.4-0.1-6.8-0.3-10.3-0.5c-7.6-0.5-15.2-1.2-22.8-2.1c5.5-2.6,11-5.4,16.4-8.3
			c11.8,1,23.6,1.5,35.5,1.6C382.9,935.2,376.6,938.3,370.3,941.2z M396.2,931.9c7.8-0.1,15.5-0.3,23.2-0.7
			c-7.4,3.5-14.7,7-22.1,10.4c-6.1,0.1-12.1,0.1-18.2,0C385,938.5,390.7,935.3,396.2,931.9z M337.8,923c0-0.4,0.1-0.7,0.1-1.1
			c-0.1-3.5-5.7-4.3-6.8-1c-0.2,0.5-0.2,0.9-0.2,1.4c-6.9-0.9-13.7-1.9-20.6-3c5.5-2.9,10.9-5.9,16.3-9.1c16,2.2,32.1,3.6,48.2,4.3
			c-6.4,3.6-12.9,7.1-19.5,10.5C349.4,924.3,343.6,923.6,337.8,923z M330.9,927.6c1,1.7,3.9,2.1,5.2,0.7c3.3,0.4,6.5,0.9,9.7,1.2
			c-5.5,2.8-11.1,5.5-16.7,8c-14.1-1.9-28.2-4.3-42.2-7c5.3-2.5,10.6-5,15.9-7.7C312.1,924.9,321.5,926.3,330.9,927.6z M320.6,941.4
			c-6.7,2.9-13.3,5.7-20.1,8.4c-12.9-2.2-25.6-5-38.1-8.2c5.8-2.5,11.6-5,17.4-7.6C293.4,936.7,307,939.3,320.6,941.4z M328.7,942.6
			c10.3,1.4,20.7,2.5,31.1,3.2c-7.6,3.2-15.3,6.1-23.1,8.7c-9.6-0.9-19.1-2.1-28.5-3.5C315.2,948.4,322,945.6,328.7,942.6z
			 M369.1,946.4c5.6,0.3,11.2,0.5,16.8,0.6c-6.9,3.2-13.9,6.3-21,9.3c-6.2-0.2-12.4-0.5-18.6-1C354.1,952.7,361.7,949.7,369.1,946.4
			z M398.1,946.9c11.1-0.1,22.2-0.7,33.2-1.6c-6.6,3.3-13.1,6.7-19.7,10.2c-11.7,0.8-23.4,1-35.1,1
			C383.9,953.4,391,950.2,398.1,946.9z M467.1,945.9c-2.2,1.3-4.4,2.6-6.6,3.9c-1.6,0.3-3.3,0.6-4.9,0.9c-10.7,1.7-21.4,3-32.2,3.9
			c6.3-3.4,12.6-6.8,18.8-10.4c18.6-2.1,37-5.5,55.1-10c-5.1,3.1-10.2,6.1-15.4,9.1c-2.5-0.2-4.3,1.2-5.1,3.1
			c-2.6,0.6-5.2,1.3-7.8,1.8C470.3,946.9,468.8,944.9,467.1,945.9z M859.4,439.2c-2,3.6-3.8,7.3-5.5,11c0.9-2.5,1.7-5.1,2.6-7.7
			c0.4-1-1.1-1.7-1.6-0.7c-10.1,23.6-18.2,47.8-24,72.9c-5.6,24.2-11.8,51.2-9.8,76.1c0.2,1.8,2.8,1.7,3.1,0.1
			c4.9-24.1,5.5-48.9,10.6-73.1c2.5-11.8,5.4-23.5,8.7-35.1c-1.7,8-2.9,16.1-3.7,24.2c-5.5,54.7-0.4,107.2-23.7,158.8
			c-22,48.7-56.4,92.2-88.5,134.6c-30.6,40.5-63.9,79.8-105.6,109.5c-44.2,31.4-97,48.2-150.1,57c-13.5,2.3-27.1,3.9-40.8,5.1
			c10.1-4.7,20.1-10.1,29.1-16.6c5.7-0.9,11.3-2,16.9-3.1c0.7,1.1,1.9,1.9,3.5,2.1c2.7,0.4,4.6-1,5.5-2.9c1.1-0.6,2.3-1.3,3.4-1.9
			c18.8-4.4,37.2-10.1,54.8-17.3c0.3,1,1.3,1.8,2.7,1.4c1.4-0.4,2.7-0.7,4.1-1c2.4-0.4,4-2.7,3.6-4.9c3.6-1.6,7.2-3.3,10.7-5
			c1.6-0.8,0.7-3.3-1-2.6c-4.1,1.5-8.2,2.9-12.3,4.3c-1.8-0.6-3.7,0.1-4.9,1.7c-12.4,4.3-24.8,8.3-37.2,11.9
			c5.8-3.2,11.5-6.3,17.3-9.5c1.7-1,2.3-2.4,2.2-3.9c3.3-1.1,6.6-2.1,9.8-3.3c0.9-0.3,0.4-1.6-0.6-1.4c-3.3,0.9-6.6,1.7-9.9,2.5
			c-1.4-2.5-4.6-4.3-7.8-2.4c-4.1,2.4-8.1,4.8-12.1,7.3c-18.2,4.1-36.5,7.6-54.9,10c3.1-1.8,6.2-3.6,9.3-5.6
			c0.7-0.5,0.1-1.6-0.7-1.3c-5.8,2.5-11.5,5.2-17.2,7.9c-11.8,1.3-23.6,2.3-35.5,2.8c6.8-3.4,13.4-7,20-10.8
			c2.7-0.2,5.5-0.6,8.2-0.9c0.7,1.5,2.2,2.7,4.7,2.7c0.8,0.1,1.7,0,2.5-0.2c2.1-0.4,3.4-1.9,3.6-3.6c21.7-2.7,43-7,63.4-12.8
			c0.7-0.2,0.4-1.3-0.3-1.2c-21.6,4-43.5,7.2-65.5,9.4c0,0,0,0,0,0c-0.7-0.5-1.5-0.8-2.3-1c-0.8-0.3-1.5-0.3-2.2-0.2
			c0.1-0.7-0.6-1.5-1.5-1.2c-2.7,1.2-5.3,2.5-7.9,3.7c-9.4,0.7-18.7,1.2-28.1,1.4c3.3-2.3,6.5-4.7,9.7-7.3c0.6-0.5-0.1-1.3-0.7-0.9
			c-4.8,2.8-9.6,5.6-14.4,8.2c-3.5,0-7,0.1-10.5,0.1c-2.2,0-4.5-0.1-6.7-0.2c4.5-0.9,5.1-8.5-0.3-9.3c-5.9-0.9-7.4,8-1.8,9.3
			c-5.8-0.2-11.7-0.5-17.5-0.9c5.9-3.4,11.8-7,17.6-10.9c8.1,0.3,16.1,0.4,24.2,0.4c30.5,0,69,2.4,95.7-15.1c0.5-0.3,0-1.2-0.5-0.9
			c-14,7.5-29.6,8.3-45.2,9.3c-17.6,1.2-35.3,1.8-53,1.8c-4.8,0-9.6-0.1-14.3-0.3c2.1-1.5,4.2-2.9,6.2-4.4c0.7-0.5-0.1-1.5-0.8-1
			c-3,1.8-6.1,3.5-9.1,5.3c-17-0.6-33.8-2-50.7-3.6c-0.1-0.6-0.6-1.1-1.2-0.8c-0.4,0.2-0.7,0.4-1.1,0.6c-12.9-1.3-25.8-2.8-38.8-4.2
			c-1.4-0.2-1.6,1.8-0.3,2.1c10.5,2.5,21.1,4.4,31.7,6c-5.7,3-11.4,5.9-17.2,8.8c-14.6-2.5-29.1-5.3-43.7-8.4
			c-1.2-0.3-1.8,1.7-0.6,2.1c12.1,3.9,24.5,7.2,37.2,10c-5.2,2.6-10.4,5.2-15.6,7.8c-3.1-0.6-6.1-1.2-9.2-1.8
			c-31.9-6.5-64.2-12.3-95.5-21.5c-0.8-0.2-1.3,0.9-0.5,1.2c29.6,10.1,60.1,17.2,90.6,23.8c2.6,0.6,5.2,1.1,7.8,1.7
			c-5.5,2.6-11,5.2-16.5,7.7c-45.8-12.1-89.5-30.8-131.4-54.4c-0.7-0.4-1.4,0.8-0.8,1.2c37.4,26,80.1,44.5,124.5,56.5
			c-1.9,0.8-3.7,1.7-5.6,2.5c-0.9,0.4-0.4,1.8,0.6,1.4c2.5-1,5.1-2.1,7.6-3.2c12.3,3.2,24.7,6,37.1,8.2c-1.3,0.5-2.5,1-3.8,1.4
			c-2.2,0.8-0.9,4.1,1.3,3.4c3.3-1.1,6.6-2.3,9.9-3.4c8.7,1.4,17.4,2.6,26.2,3.6c-0.6,0.2-1.2,0.4-1.8,0.6c-2.1,0.6-0.8,3.7,1.3,3.2
			c3.4-0.9,6.7-1.8,10-2.8c2.4,0.2,4.8,0.5,7.2,0.7c6,0.5,12,0.8,18.1,1.1c0.4,1.1,1.5,2,2.9,1.5c1-0.4,2-0.8,3-1.2
			c11.8,0.4,23.8,0.4,35.8-0.1c-5.4,3-10.9,5.9-16.3,8.9c-1.6,0.9-1.3,3-0.2,3.7c-75.9-0.5-151.6-17.9-220-51.3
			c-47.6-23.3-101.9-56.1-124.8-106.4c10.4,15.4,23.1,29.4,36.4,38.9c1.5,1.1,3.6-0.7,2.4-2.3c-10.5-13.2-22.4-25-32.2-38.7
			c-0.1-0.2-0.2-0.3-0.3-0.5c4.8,6.4,10.3,12.3,16.7,17.7c1.1,0.9,2.7-0.6,1.8-1.7c-5.9-7.5-11.8-15.1-17.4-23
			c7.2,8.4,15,16.3,23.6,23.3c1,0.8,2.5-0.6,1.6-1.5c-15.8-16.7-30.9-33.6-43.7-52.5c-2.2-15.3-2.9-31-3.4-46.5
			c9.2,32.2,26.5,65.3,53.9,83.1c1.4,0.9,3.3-0.6,2.2-2.1c-11.8-15.3-25.2-28.5-35.2-45.2c-9.1-15.3-16.4-31.9-21.2-49.1
			c16,31.9,37.5,61.7,66.3,83.1c1.1,0.8,2.8-0.6,1.8-1.7c-26.1-27.6-50.4-55.8-68.8-89.1c-0.5-9.1-1-18.2-1.5-27.2
			c2.6,9.3,6,18.2,10.6,26.5C68,767.6,134.8,817.9,196.9,844.8c68.1,29.6,140.9,44.3,215,40.8c159-7.5,314.7-80.7,380.9-230.6
			c9.5-21.4,9.4-54.7,14.5-77.4c-1,15.8-1.3,31.6-0.7,47c0,1.1,1.8,1.1,2,0c6.1-44.1,5.4-88.4,16.6-131.8
			c10.4-40.2,28.9-77.2,57.4-107.7c0.7-0.7-0.5-2-1.2-1.3c-24.4,22.1-41,50.8-52.1,81.5c9.1-38.3,22.4-75.1,48.5-107.6
			c18.5-23,35.3-45.4,46.4-71.2c-0.8,15.7-2.4,31.2-5.7,46.3c-6.9,12-16.2,22.3-28.2,31.1c-1.1,0.8-0.1,2.9,1.2,2.2
			c9.2-4.8,17.2-11.6,23.5-19.7c-4.3,14.6-10.5,28.9-19.5,42.4C883.9,406.1,869.6,421.2,859.4,439.2z"/>
		<path class="st0" d="M799.7,667.1c-24.5,39.2-48.5,78.3-76.1,115.4c2.5-6.6,4.5-13.4,6.4-20.2c11.7-13.6,22.1-28.1,31-43.3
			c0.4-0.7-0.8-1.5-1.3-0.8c-8.4,12.7-17.6,24.5-27.4,35.6c1.2-4.4,2.3-8.6,3.6-12.8c0,0,0,0,0,0c-2.3,5.6-5,11.4-7.7,17.3
			c-5.2,5.7-10.6,11.3-16.2,16.6c2.5-6.1,4.9-12.1,7.4-18.1c0.7-1.8-2-3-2.8-1.2c-3.7,8.6-7.6,17.2-11.4,25.7
			c-19.3,17.5-40.5,32.9-63.6,46.6c-1,0.6-0.1,2.2,0.9,1.7c20.8-9.7,40.3-22.7,58-37.9c-0.8,1.8-1.6,3.5-2.4,5.3
			c-4.7,10.8-10.8,21.8-13.8,33.3c-21.1,22.5-45.2,42.1-74.6,52.5c-0.8,0.3-0.3,1.4,0.4,1.1c29.6-8.5,53.5-26.5,74.3-48
			c0.3,0,0.5-0.1,0.7-0.3c0.2-0.3,0.5-0.7,0.7-1.1c9.6-10,18.5-20.8,27-31.7c11.7-14.9,23.2-30.2,34.2-45.8
			c-2.2,5-4.3,10.1-5.6,15.3c-0.4,1.5,1.9,2.4,2.7,1.2c6.5-9.5,10.6-20.8,15.3-31.2c0.5-1.1,0.2-2.1-0.5-2.7
			c15.5-23.1,29.8-47.1,42-71.8C801.5,667.1,800.2,666.3,799.7,667.1z M715.5,793.2c-0.5,0.6-1,1.3-1.5,2
			c-6.5,8.4-13.2,16.7-20.2,24.8c3.1-7,5.6-14.3,8.5-21.2c1.8-4.5,3.7-9,5.5-13.5c5.3-4.9,10.4-10,15.3-15.3
			C719.9,777.7,717.2,785.5,715.5,793.2z"/>
		<path class="st0" d="M136.3,846.9c-1.1-0.2-1.3,1.5-0.3,1.7C137.2,848.8,137.4,847.1,136.3,846.9z"/>
		<path class="st0" d="M127,874.7c0.3,0.1,0.4-0.4,0.1-0.5C126.7,874.1,126.6,874.6,127,874.7z"/>
		<path class="st0" d="M439.1,885.5c-32.5,4.8-64.1,3.5-96.5-1.4c-0.3,0-0.4,0.4-0.1,0.5c31,10.7,65.2,11,96.9,3.2
			C440.7,887.4,440.6,885.3,439.1,885.5z"/>
		<path class="st0" d="M613.8,234.6c-1.2,0.9-0.1,3.2,1.3,2.4c9.8-5.3,19.8-11.3,28-18.8c0.6-0.6,0.1-1.8-0.8-1.4
			C632.1,221.2,622.5,227.9,613.8,234.6z"/>
		<path class="st0" d="M695.1,169.6c8.4-4.3,16.7-8.8,24.2-14.5c0.9-0.7,0.1-2.2-1-1.7c-9.5,4-18.5,9.2-27.6,14
			c-7.1,3.7-15.5,7-21.4,12.6c0,0,0,0.1,0,0.1C678.3,179.1,687.2,173.6,695.1,169.6z"/>
		<path class="st0" d="M682.4,181.5c-0.1,0.1,0,0.2,0.1,0.2c10-0.8,20.2-7.4,29.2-11.7c9.7-4.6,18.9-9.4,28-15.1
			c0.5-0.3,0-1.1-0.5-0.9c-11.3,3.8-21.9,8.6-32.6,13.8C698.5,171.7,688.7,175,682.4,181.5z"/>
		<path class="st0" d="M792.6,178.1c2.5,1.1,4.4,1.7,7.2,1c2.3-0.6,4.6-2.2,5.3-4.6c0.3-1.1-0.6-2.4-1.8-1.8
			c-2.7,1.1-6.3,3.4-9.4,2.5C792,174.6,790.6,177.3,792.6,178.1z"/>
		<path class="st0" d="M312.4,566.4C312.3,566.4,312.3,566.5,312.4,566.4c12-1.6,22.9-6.1,32.4-13.5c0,0,0-0.1,0-0.1
			C335.2,560.2,324.4,564.8,312.4,566.4z"/>
		<path class="st0" d="M584.1,604.4c-35.1,20.4-69.1,42.5-103.2,64.7c0,0,0,0.1,0,0.1c35-20.8,69.8-41.5,103.7-64
			C585.2,604.8,584.6,604,584.1,604.4z"/>
		<path class="st0" d="M678.2,653.6c-20.4,11.1-40.8,21.6-62.7,29.5c-2.6,1-1,4.9,1.6,4c22.2-7.2,43.8-16.9,62.4-31.2
			C680.6,655.1,679.6,652.9,678.2,653.6z"/>
		<path class="st0" d="M545.3,446c0.1-0.1,0-0.3-0.1-0.2c-4.8,3.5-9.6,7.1-14.4,10.6c-0.1,0.1,0,0.2,0.1,0.1
			C535.7,453,540.5,449.5,545.3,446z"/>
		<path class="st0" d="M523.9,489.7c23.6-13,45.3-29.5,69.4-41.8c0.1-0.1,0-0.2-0.1-0.2c-24.3,11.5-49.6,22.4-70.4,39.9
			C521.9,488.5,522.7,490.4,523.9,489.7z"/>
		<path class="st0" d="M614.3,512.9c-0.6,0.5,0.1,1.4,0.7,1c27.6-17.6,53.1-38.4,79.7-57.4c0.2-0.1,0-0.4-0.2-0.3
			C667.9,475.2,639.9,492.5,614.3,512.9z"/>
		<path class="st0" d="M648.9,514c-36.3,2.5-72.5,6.9-108.7,10.8c-2,0.2-1.7,3.4,0.4,3.2c34.9-3.4,69.9-6.4,104.7-11
			c-2.6,2.1-5.3,4.2-7.9,6.4c-1.4,1.1,0.1,3.1,1.6,2.2c5.3-3.2,10.6-6.5,15.9-9.9c2.7-0.4,5.3-0.7,8-1.1c1-0.1,0.8-1.6-0.2-1.5
			c-1.4,0.1-2.9,0.2-4.3,0.3c28.8-19,56.4-40.7,84.1-61c2-1.4-0.2-4.4-2.2-3C709.9,470.5,678,490.9,648.9,514z"/>
		<path class="st0" d="M728.4,484.3c-32.6,23.4-65.5,48.6-94.7,76.2c-1,1,0.1,2.7,1.3,1.8c32.9-23,64.2-50.3,93.7-77.5
			C729,484.5,728.7,484.1,728.4,484.3z"/>
		<path class="st0" d="M712.5,529.1c-32.2,25.5-66.1,48.6-99.9,72c-0.7,0.5,0.1,1.5,0.8,1.1c35.8-20.3,69-44.7,101.1-70.3
			C716.2,530.4,714.2,527.7,712.5,529.1z"/>
		<path class="st0" d="M695.6,572.4c-18.3,14-38.5,27.1-55.1,43.1c-1,1,0.5,2.3,1.6,1.6c19.7-11.8,37.5-27.8,55.7-41.7
			C699.7,573.9,697.5,570.9,695.6,572.4z"/>
		<path class="st0" d="M267.7,486.9C245,507,220.4,525.6,198.9,547c0,0,0,0.1,0.1,0.1c26.2-14.9,49.1-37.3,69.5-59.3
			C269,487.3,268.2,486.5,267.7,486.9z"/>
		<path class="st0" d="M267.9,496.9c-12.9,12.5-24.4,26.2-38,38c-0.5,0.4,0.1,1.2,0.6,0.8c14.4-10.9,28.9-22.4,39.5-37.1
			C270.9,497.1,269.1,495.7,267.9,496.9z"/>
		<path class="st0" d="M170.9,382.7c-29.2,30.2-56.1,62.7-83.3,94.6c-1.1,1.3,0.9,2.9,2,1.6c28.2-31.1,57-61.9,83.2-94.7
			C173.8,382.9,172,381.5,170.9,382.7z"/>
		<path class="st0" d="M480.4,261.3c-0.6,0.6,0.4,1.6,1.1,1.1c34.6-25.6,63.3-61.9,89.9-95.3c0.1-0.1-0.1-0.3-0.2-0.2
			c-13.6,17.1-28.4,33.3-43.6,49C512.4,231.6,495.4,245.6,480.4,261.3z"/>
		<path class="st0" d="M523,250.1c-0.8,1,0.5,2.3,1.5,1.6c28.2-19.7,50.8-49.8,73-75.8c0.1-0.2-0.1-0.3-0.3-0.2
			c-11.7,13-24.4,25.3-36.8,37.6C548.1,225.6,534.1,236.8,523,250.1z"/>
		<path class="st0" d="M576.1,222.4c-7.8,6.6-15.6,13.2-23,20.3c-0.6,0.6,0.3,1.5,1,1c8.2-6,15.8-12.6,23.6-19.1
			C579,223.4,577.4,221.2,576.1,222.4z"/>
		<path class="st0" d="M195.7,672.4c-19.1,17.3-38,34.7-56.9,52.2c-0.9,0.8,0.2,2.3,1.1,1.5c18.9-17.6,37.7-35.3,56.4-53.1
			C196.6,672.7,196,672.1,195.7,672.4z"/>
		<path class="st0" d="M662.2,98.7c24.6-19.7,48.2-41.4,72.1-62c0.7-0.6-0.1-1.6-0.8-1.1c-25.9,17.3-52.2,37.9-73.1,61.1
			C659.3,97.9,661,99.6,662.2,98.7z"/>
		<path class="st0" d="M672.9,103.9c-1.6,1.3,0.1,3.5,1.8,2.5c20-11.5,38.4-26.3,57.2-39.7c1.7-1.2-0.2-3.8-1.9-2.6
			C710.9,77.1,690.7,89.1,672.9,103.9z"/>
		<path class="st0" d="M334.8,698.6c-12,5.6-23.2,13-34.5,19.8c-2.1,1.2,0.2,4.3,2.2,3c11.2-6.7,22.9-13.1,33.3-21
			C336.7,699.7,335.9,698,334.8,698.6z"/>
		<path class="st0" d="M349.5,544.2c15.3-11.3,30.6-22.6,45.7-34.2c0.4-0.3,0-0.9-0.4-0.6c-15.6,10.9-31,22.1-46.4,33.3
			C347.4,543.4,348.6,544.9,349.5,544.2z"/>
		<path class="st0" d="M312.7,554.2c26-18.9,51.4-38.5,76.3-58.9c0.6-0.5-0.1-1.3-0.7-0.9c-26.3,18.5-52,37.7-77.2,57.7
			C309.8,553.2,311.3,555.2,312.7,554.2z"/>
		<path class="st0" d="M337.2,509.2c7.6-4.8,15.2-9.4,22.5-14.6c0.9-0.6,0.1-2.2-0.9-1.6c-7.9,4.4-15.5,9.2-23.2,13.9
			C334,507.9,335.7,510.2,337.2,509.2z"/>
		<path class="st0" d="M499.6,510.9c-0.1,0-0.1,0.2,0,0.2c34.4,2.7,69.6,0.1,103.4-6.8c1-0.2,0.8-1.7-0.2-1.6
			c-5.2,0.6-10.4,1-15.5,1.5c29.3-17.5,57.8-36.6,85.6-56.4c0.1-0.1,0-0.3-0.1-0.2c-30,17.8-59.6,36.6-88,56.8
			C556.4,507.2,528.1,509.2,499.6,510.9z"/>
		<path class="st0" d="M485.2,507c22.4-1.6,44.9-3,67.3-5c0.1,0.1,0.3,0.1,0.5,0c0,0,0,0,0,0c10.2-0.9,20.3-1.9,30.4-3.1
			c1.1-0.1,0.9-1.7-0.2-1.7c-7.9,0.3-15.7,0.6-23.6,1.1c25.9-14.6,50.3-31.9,74.9-48.4c0.1-0.1,0-0.2-0.1-0.2
			c-26.5,15.7-53.8,30.8-78.9,48.8c-23.6,1.4-47.1,3.5-70.6,5.4C482.9,504.2,483.2,507.2,485.2,507z"/>
		<path class="st0" d="M218.6,657.9c-24,8.3-48,15.9-72.7,21.5c3.6-3.6,7.1-7.2,10.6-10.9c19.1-3.3,37.8-8.1,56.1-14.9
			c1.3-0.5,0.5-2.3-0.8-1.9c-16.7,4.6-33.6,8.6-50.6,11.8c7.9-8.4,15.7-17,23.5-25.3c6.1-2.3,12.1-4.7,18.1-7.3
			c1.1-0.5,0.4-2-0.7-1.7c-4.3,1.4-8.6,2.8-12.9,4.2c1.3-1.3,2.5-2.7,3.8-4c0.4-0.4-0.3-0.9-0.6-0.5c-1.8,1.8-3.7,3.5-5.5,5.3
			c-10,3.2-20,6.4-30.1,9.4c4.6-5,9.1-10,13.6-15c0.5-0.5-0.4-1.1-0.8-0.7c-5.6,5.5-11,11.2-16.5,16.8c-8.6,2.6-17.3,5-26,7.2
			c8.9-9.3,18.2-18.2,27.9-26.9c5.5-1.2,11-2.5,16.4-3.9c0.8-0.2,0.5-1.6-0.4-1.4c-5.2,0.8-10.3,1.8-15.4,2.7
			c-0.3-0.1-0.6-0.1-0.9,0.1c0,0-0.1,0.1-0.1,0.1c-9.1,1.8-18.2,3.7-27.3,5.6c10.3-10.6,20.4-21.4,30.3-32.2c0.5-0.6-0.4-1.5-0.9-1
			c-12.2,11.3-24.4,22.8-36.2,34.6c-0.6,0.1-1.2,0.3-1.8,0.4c-1.1,0.2-1.3,1.6-0.8,2.2c-10.3,10.4-20.3,21.2-29.5,32.4
			c0,0,0,0.1,0.1,0.1c12.3-10.4,24.2-21.6,35.6-33.2c8.7-1.8,17.5-3.6,26.2-5.5c-16.6,13.1-31,28.7-44,45.5c-1,1.3,1,3,2.1,1.7
			c4.7-6,9.7-11.6,14.8-17.1c8.4-1.9,16.8-4,25.1-6.3c-11.8,12.4-23.5,24.9-35.2,37.4c-0.9,0.9,0.7,2.2,1.5,1.2
			c12.6-13.2,25.1-26.3,37.5-39.7c9.9-2.8,19.7-5.9,29.3-9.3c-9,8.4-18.2,16.8-27.2,25.4c-6.2,1.1-12.4,2-18.6,2.8
			c-2.5,0.3-2,4.2,0.5,3.9c4.4-0.5,8.7-1.2,13.1-1.8c-12.2,11.8-24,24-34.3,37.2c-0.2,0.2,0.1,0.6,0.3,0.4
			c9.2-7.3,18-15.3,26.5-23.6c26.5-5.7,52.7-13.2,77.6-24C220.3,659.1,219.6,657.5,218.6,657.9z"/>
		<path class="st0" d="M213.9,425c-29.1,6.8-57.6,15.8-86.3,24.1c-2.3,0.7-0.9,4.2,1.4,3.5c28.6-8.1,57.4-15.6,85.5-25.3
			C215.8,426.9,215.3,424.7,213.9,425z"/>
		<path class="st0" d="M431.5,287.1c-29,6.4-57.8,14.6-86.9,21.4c29.2-6,58.5-11.6,87.3-19.8C432.9,288.4,432.5,286.9,431.5,287.1z"
			/>
		<path class="st0" d="M307.8,316.6c3.8-0.9,7.7-1.8,11.5-2.7c-3.8,0.8-7.7,1.5-11.5,2.2C307.5,316.2,307.5,316.7,307.8,316.6z"/>
		<path class="st0" d="M433.3,278.1c-35.3,6.9-70.4,14.3-105.8,20.7c-1.6,0.3-1.3,2.8,0.3,2.5c35.4-6.3,70.8-13,105.7-21.8
			C434.4,279.3,434.2,277.9,433.3,278.1z"/>
		<path class="st0" d="M292.3,343.9c-23.7,3.6-47.1,8.4-70.6,12.8c-1.9,0.4-1.6,3.4,0.4,3c23.5-4.4,47.1-8.6,70.5-13.9
			C293.7,345.6,293.5,343.7,292.3,343.9z"/>
		<path class="st0" d="M442.5,694.5c-36.2,14.9-73.1,28.3-110.7,39.3c-2.4,0.7-1,4.4,1.4,3.7c37.7-11.1,74.2-24.9,109.6-42
			C443.4,695.2,443.1,694.2,442.5,694.5z"/>
		<path class="st0" d="M442,715c-26.3,9.6-53.8,15.8-81.7,17.8c-2.7,0.2-2.2,4.4,0.5,4.2c28.6-2.2,55.6-8.9,81.6-20.9
			C443.1,715.8,442.7,714.8,442,715z"/>
		<path class="st0" d="M440.9,726.4c-19.7,5-39.4,10.4-59,15.9c-1.6,0.4-0.6,2.8,0.9,2.3c19.6-5.5,39-11.2,58.4-17.2
			C442,727.2,441.6,726.2,440.9,726.4z"/>
		<path class="st0" d="M185.8,706.8c-1,0.2-0.8,1.7,0.2,1.5c13.9-2.2,27.4-6.3,40-12.6c0.5-0.2,0.2-1-0.3-0.8
			C212.9,700.5,199.7,704.6,185.8,706.8z"/>
		<path class="st0" d="M229.9,790.2c11.5-0.2,22.6-2.6,32.5-8.6c1.1-0.6,0.1-2.1-1-1.8c-10.5,3.3-21,5.8-32,6.3
			C226.8,786.2,227.3,790.2,229.9,790.2z"/>
		<path class="st0" d="M249.5,796.2c15.5-1.2,30.3-4.3,44.7-10.3c1.3-0.5,0.5-2.2-0.8-1.9c-14.6,3.9-29.4,6.8-44.5,8
			C246.3,792.2,246.8,796.4,249.5,796.2z"/>
		<path class="st0" d="M207,822.7c0.5,0.1,0.6-0.6,0.1-0.7c-48.6-13.3-83-53.2-117.8-87c-0.8-0.7-1.8,0.5-1,1.3
			C122.7,771.1,155.3,815.1,207,822.7z"/>
		<path class="st0" d="M524.3,833.3c52.8-14.2,108.8-33.4,151.6-68.5c45.5-37.2,67.7-92.8,83.7-147.7c0.2-0.8-1.1-1.1-1.4-0.4
			c-21.5,55.1-40.5,111.2-89.1,148.9c-43.1,33.5-95.3,47.5-146.1,64.6C521.1,831,522.4,833.8,524.3,833.3z"/>
		<path class="st0" d="M778.9,568.6c4.4-21,5.1-42.9,9.1-64.1c4.2-22.7,10.2-45,17.1-67c0.3-0.9-1.1-1.6-1.4-0.6
			c-7.9,21.1-14.2,42.7-19,64.7c-4.7,21.5-9.9,44.9-8.6,66.9C776.1,570.2,778.6,570.1,778.9,568.6z"/>
		<path class="st0" d="M664.3,340.5c-4.3,5.1-8.5,10.3-12.8,15.4c-13.5,4-27,7.8-40.6,11.4c3.6-4.9,7.1-9.9,10.9-14.6
			c6.9-8.3,14.3-16.2,22.1-23.6c1.4-1.4-1-3.9-2.4-2.5c-12.9,12.2-27.6,26.4-36.7,42.4c-18.2,4.7-36.5,9-55,12.6
			c-1.8,0.4-1.5,3.3,0.3,2.9c17.8-3.5,35.4-7.5,52.9-12.1c-0.9,1.7-1.7,3.3-2.4,5c-0.4,1,0.8,1.7,1.5,0.9c2.2-2.3,4.2-4.8,6.2-7.4
			c14-3.8,27.8-8.1,41.5-12.9c-0.4,0.5-0.8,1-1.2,1.5c-4.5,5.5-10.5,11-13.1,17.6c-0.5,1.2,0.8,2.2,1.9,1.5
			c6-3.9,10.2-10.8,14.7-16.4c5.2-6.4,10.3-12.8,15.5-19.3C669.1,341.1,666,338.5,664.3,340.5z"/>
		<path class="st0" d="M692.1,339.4c-4.9,5.6-9.9,11.2-14.9,16.8c-4.3,4.9-9.6,9.6-12.4,15.5c-0.5,1.1,0.8,1.9,1.7,1.4
			c5.5-3.5,9.6-9.4,14-14.3c5-5.6,9.9-11.1,14.9-16.7C697.2,340,693.9,337.4,692.1,339.4z"/>
		<path class="st0" d="M714.1,333c-5.3,8-12.2,14.6-19.9,20.2c-0.9,0.6-0.1,2.2,0.9,1.7c8.9-4.6,16-11.5,21.6-19.8
			C718,333.3,715.3,331.1,714.1,333z"/>
		<path class="st0" d="M552.7,319.2c20.9-3.9,41.9-7.6,62.7-12.5c1.2-0.3,1-2.1-0.2-1.9c-21,3-41.9,7.2-62.8,11.2
			C550.3,316.4,550.7,319.6,552.7,319.2z"/>
		<path class="st0" d="M225.5,898.6c-3.8-0.6-4.7,5.3-0.9,5.9C228.3,905.1,229.2,899.2,225.5,898.6z"/>
		<path class="st0" d="M275.3,884.4c-1.5,1.9-1.3,3-1.6,5.3c-0.4,4.5,5.9,5.4,6.9,1.1c0.5-2.2,0.9-3.3,0.1-5.5
			C279.9,883,276.8,882.5,275.3,884.4z"/>
	</g>
</g>
</svg>
