<?xml version="1.0" encoding="utf-8"?>
<!-- Generator: Adobe Illustrator 24.0.0, SVG Export Plug-In . SVG Version: 6.00 Build 0)  -->
<svg version="1.1" id="Layer_1" xmlns="http://www.w3.org/2000/svg" xmlns:xlink="http://www.w3.org/1999/xlink" x="0px" y="0px"
	 viewBox="0 0 50.2 50.2" style="enable-background:new 0 0 50.2 50.2;" xml:space="preserve">
<style type="text/css">
	.st0{fill:#FFB71B;}
</style>
<g>
	<g>
		<path class="st0" d="M4.8,22c0-0.2,0-0.4-0.1-0.5c-0.1-0.4-0.3-0.8-0.6-1.1c-0.1-0.1-0.2-0.2-0.3-0.3l0,0l0.1-0.3l0,0v-0.3l0,0
			v-0.1l0,0v-0.1l0,0c0,0,0,0,0-0.1v-0.1c0-0.1,0-0.1,0-0.1c0-0.4-0.1-0.8-0.3-1.2l0,0c0.4,0.1,0.9,0.1,1.3,0c0.3,0,0.6-0.1,0.9-0.2
			c0.3-0.1,0.6-0.3,0.9-0.5c0.5-0.4,0.9-1,1.1-1.7c0.1-0.3,0.1-0.7,0.1-1c0-0.1,0-0.2,0-0.3V14l0,0l-0.1-0.2c0-0.1,0-0.2-0.1-0.3
			c-0.3-0.6-0.9-1.1-1.6-1.2c-0.3-0.1-0.7,0-1,0c-0.1,0-0.2,0.1-0.3,0.1c-0.5,0.2-1,0.6-1,1.4c0,0.1,0,0.2,0,0.3
			C3.9,14.8,4.3,15,4.7,15s0.8-0.4,0.8-0.8c0-0.2-0.1-0.4-0.4-0.7c-0.2-0.1-0.2-0.2-0.2-0.3s0.2-0.2,0.3-0.3l0,0c0.2,0,0.5,0,0.8,0
			c0.5,0.1,0.9,0.4,1,0.9l0,0v0.1v0.2v0.1c0,0.1,0,0.1,0,0.2c0,0,0,0,0,0.1c0,0.2,0,0.5-0.1,0.7c-0.1,0.5-0.4,0.9-0.8,1.2
			c-0.2,0.2-0.4,0.3-0.6,0.3c-0.2,0.1-0.5,0.1-0.8,0.2c-0.5,0.1-1,0-1.5-0.2S2.3,16.2,2,15.9c-0.3-0.4-0.6-0.8-0.7-1.3
			c-0.1-0.3-0.2-0.7-0.2-1c0-0.7,0.2-1.3,0.5-1.9c0.2-0.4,0.6-0.9,1-1.2C3,10.1,3.5,9.8,3.9,9.6c0.9-0.4,2-0.5,3.1-0.2
			c1,0.3,2,0.8,3,1.5c0.1,0.1,0.2,0.1,0.3,0v-0.1h0.1c0.1,0,0.1-0.1,0.1-0.2c0-0.1,0-0.1,0-0.1c-0.7-1-1.3-2-1.5-3
			C8.9,7,8.8,6.6,8.8,6.1c0-0.6,0.1-1.2,0.4-1.7c0.2-0.5,0.5-0.9,0.9-1.3c0.4-0.4,0.8-0.7,1.2-1c0.9-0.5,2-0.7,3-0.4
			c0.5,0.1,0.9,0.4,1.3,0.7c0.4,0.4,0.7,0.8,0.8,1.2c0.1,0.3,0.2,0.7,0.2,1.1c0,0.1,0,0.3,0,0.4c0,0.3-0.1,0.5-0.2,0.8
			c-0.1,0.2-0.2,0.4-0.3,0.6c-0.3,0.4-0.7,0.7-1.2,0.8c-0.3,0.1-0.5,0.1-0.8,0.1c-0.1,0-0.1,0-0.2,0h-0.1h-0.2c-0.1,0-0.1,0-0.1,0
			l0,0c-0.4-0.1-0.8-0.5-0.9-1c0-0.2-0.1-0.3-0.1-0.5c0-0.1,0-0.2,0-0.3l0,0c0.1-0.2,0.2-0.3,0.3-0.3s0.2,0.1,0.4,0.2
			c0.3,0.3,0.6,0.4,0.9,0.3c0.3-0.1,0.6-0.5,0.6-0.8l0,0c0-0.2-0.1-0.7-0.9-0.8c-0.5-0.1-0.9,0-1.2,0.3c-0.2,0.2-0.3,0.4-0.4,0.6
			c-0.1,0.1-0.1,0.2-0.1,0.4S12,5.9,12,6s0,0.3,0,0.4c0.1,0.7,0.6,1.3,1.2,1.6c0.1,0,0.2,0.1,0.3,0.1l0.2,0.1l0,0h0.1
			c0.1,0,0.2,0,0.3,0c0.3,0,0.6,0,1-0.1c0.6-0.2,1.2-0.5,1.7-1.1c0.2-0.3,0.4-0.6,0.5-0.9c0.1-0.4,0.2-0.6,0.2-0.9
			c0-0.2,0-0.4,0-0.6c0-0.2,0-0.5-0.1-0.7l0,0c0.4,0.2,0.8,0.3,1.2,0.3c0.1,0,0.1,0,0.2,0h0.1h0.2l0,0h0.1l0,0h0.3l0,0l0.3-0.1
			c0,0,0,0,0.1,0c0.1,0.1,0.2,0.2,0.3,0.3c0.3,0.3,0.7,0.5,1.1,0.6c0.8,0.2,1.8-0.1,2.3-0.8C23.8,3.9,24,3.5,24,3.1V3
			c0-0.1,0-0.1,0-0.2c0-0.3-0.1-0.9-0.8-1.2c-0.3-0.2-0.6-0.1-0.7,0c-0.2,0.1-0.3,0.3-0.3,0.5s0.1,0.4,0.2,0.5
			c0.2,0.1,0.4,0.1,0.6,0.1c0.2-0.1,0.3,0,0.3,0c0.1,0,0.1,0.1,0.1,0.2V3l0,0c0,0.3-0.1,0.6-0.3,0.8c-0.4,0.5-1.1,0.7-1.6,0.5
			C21.2,4.2,21,4,20.7,3.8l-0.1-0.1c0.1-0.1,0.2-0.1,0.3-0.2c0.3-0.3,0.6-0.7,0.7-1.1c0.1-0.2,0.1-0.5,0.1-0.7
			c0-0.3-0.1-0.5-0.2-0.7c-0.1-0.2-0.3-0.3-0.4-0.4c-0.1-0.1-0.3-0.1-0.4-0.1c-0.3,0-0.6,0.2-0.8,0.3c-0.5,0.4-0.7,1-0.7,1.6
			c0,0.3,0.1,0.7,0.2,1l0,0h-0.1h-0.2l0,0c0,0,0,0-0.1,0h-0.1h-0.1h-0.1l0,0c-0.3,0-0.6-0.1-0.9-0.2c-0.2-0.1-0.4-0.2-0.6-0.3
			c-0.2-0.5-0.6-1-1-1.4c-0.5-0.5-1.1-0.8-1.7-1c-1.2-0.4-2.6-0.2-3.8,0.5c-0.5,0.3-1,0.7-1.4,1.2s-0.8,1-1,1.6S7.9,5,7.9,5.7
			c0,0.6,0.1,1.2,0.3,1.8c0,0,0,0.1,0.1,0.1L8.1,7.3c0-0.1-0.1-0.1-0.2-0.1c-0.1,0-0.3,0-0.5-0.1C7.1,6.7,6.8,6.3,6.6,5.8
			C6.2,5.1,6,4.3,6,3.6c0-0.2,0-0.5,0.1-0.7C6.2,2.4,6.4,2,6.7,1.7s0.7-0.4,1-0.4s0.6,0.2,0.6,0.5l0,0C8.3,2,8.2,2.2,8,2.3
			c-0.1,0.1-0.2,0.1-0.3,0c-0.1,0-0.2,0-0.3,0.1l0,0v0.1c0,0.1,0,0.2,0.1,0.2C7.7,2.8,7.9,2.9,8,2.9c0.2,0,0.4-0.1,0.6-0.2
			C8.7,2.6,8.9,2.5,9,2.3l0,0c0-0.1,0.1-0.1,0.1-0.2c0-0.1,0.1-0.2,0.1-0.3s0-0.2,0-0.3c0-0.3-0.1-0.6-0.3-0.9
			C8.6,0.2,8.2,0.1,7.9,0C7.2-0.1,6.5,0.1,6,0.7c-0.4,0.5-0.6,1-0.7,1.7c0,0.2,0,0.4,0,0.6c0,0.7,0.1,1.4,0.4,2.1
			c-0.2-0.3-0.4-0.7-0.6-1C4.9,3.7,4.7,3.2,4.6,2.8C4.5,2.5,4.5,2.1,4.5,1.9c0-0.1,0-0.2,0-0.3c0-0.2,0-0.4,0.1-0.6
			c0-0.2,0.1-0.4,0.2-0.6l0,0V0.3c0-0.1,0-0.1-0.1-0.2l0,0C4.6,0,4.5,0,4.4,0.1C3.9,0.4,3.6,1,3.5,1.6c0,0.1,0,0.3,0,0.4
			c0,0.5,0.1,0.9,0.3,1.3l0,0c-0.4-0.7-0.5-1.5-0.5-2c0-0.2,0-0.3,0-0.3l0,0c0-0.1,0-0.1-0.1-0.2C3.1,0.7,3,0.7,3,0.8
			C2.2,1.1,1,0.6,1,0.6c-0.1,0-0.2,0-0.3,0c0,0-0.1,0.1-0.1,0.2v0.1c0,0,0.3,0.7,0.3,1.4c0,0.2,0,0.5-0.1,0.6V3c0,0.1,0,0.1,0,0.1
			C0.9,3.2,0.9,3.2,1,3.2c0,0,1.3-0.1,2.3,0.5l0,0C2.8,3.5,2.2,3.3,1.6,3.5C1,3.6,0.4,4,0.1,4.4v0.1c0,0.1,0,0.1,0.1,0.2l0,0
			c0.1,0.1,0.2,0.1,0.3,0.1l0,0c0.2-0.1,0.4-0.2,0.6-0.2c0.2-0.1,0.4-0.1,0.6-0.1c0.4,0,0.8,0,1.3,0.1c0.4,0.1,0.8,0.3,1.3,0.5
			c0.3,0.2,0.7,0.4,1,0.6C4.4,5.3,3.5,5.2,2.6,5.3C1.9,5.4,1.3,5.6,0.9,6C0.4,6.4,0.2,7,0.2,7.6c0,0.1,0,0.2,0,0.3
			c0.1,0.3,0.2,0.7,0.6,1c0.3,0.3,0.8,0.4,1.1,0.3c0.1,0,0.2,0,0.3-0.1C2.3,9.1,2.4,9,2.4,9l0,0c0.2-0.1,0.3-0.2,0.4-0.4
			C2.9,8.4,3,8.2,3,8c0-0.2-0.1-0.4-0.2-0.5C2.7,7.4,2.6,7.4,2.5,7.4l0,0c-0.1,0-0.1,0.1-0.1,0.2v0.1v0.1c0,0.3-0.4,0.5-0.6,0.5
			C1.5,8.3,1.3,8,1.2,7.7V7.6c0-0.3,0.1-0.7,0.4-0.9c0.3-0.3,0.7-0.5,1.2-0.6c0.9-0.2,1.9,0,2.9,0.5C6.2,6.8,6.6,7.1,7,7.5
			C7.1,7.7,7.1,8,7.1,8.1c0,0,0,0,0,0.1C5.9,7.8,4.7,7.9,3.6,8.3C3,8.5,2.5,8.9,2,9.3s-0.9,0.9-1.2,1.5c-0.4,0.7-0.7,1.6-0.7,2.5
			c0,0.4,0.1,0.9,0.2,1.3c0.2,0.6,0.5,1.2,1,1.7c0.4,0.5,0.9,0.8,1.4,1c0.1,0.2,0.2,0.4,0.3,0.6c0.1,0.3,0.2,0.6,0.2,0.9l0,0l0,0
			v0.1V19v0.1c0,0,0,0,0,0.1v0.1v0.2v0.1l0,0c-0.7-0.4-1.9-0.3-2.5,0.5c-0.1,0.2-0.3,0.4-0.3,0.8l0,0c0,0.1,0,0.3,0.1,0.4
			c0.1,0.1,0.2,0.3,0.4,0.4c0.5,0.3,1,0.2,1.4,0.1c0.4-0.1,0.8-0.4,1.1-0.7c0.1-0.1,0.1-0.2,0.2-0.3l0.1,0.1
			c0.2,0.2,0.4,0.5,0.5,0.8c0,0.1,0.1,0.3,0.1,0.4c0,0.5-0.2,0.9-0.6,1.2c-0.2,0.2-0.5,0.3-0.8,0.3c-0.1,0-0.1,0-0.2,0
			c-0.1,0-0.2-0.1-0.2-0.3c0,0,0-0.1,0-0.2c0-0.1,0-0.2,0-0.2c0-0.3-0.3-0.6-0.6-0.6s-0.6,0.2-0.6,0.6c0,0.1,0,0.3,0.1,0.4
			c0.3,0.6,0.8,0.8,1.2,0.8c0.1,0,0.1,0,0.2,0c0.4,0,0.8-0.1,1.2-0.4C4.4,23.4,4.8,22.7,4.8,22z M2.6,20.6c-0.2,0.2-0.5,0.4-0.7,0.5
			c-0.1,0-0.3,0.1-0.4,0.1c-0.2,0-0.3,0-0.3-0.1l0,0l0,0V21c0-0.1,0-0.2,0.1-0.2c0.1-0.2,0.4-0.3,0.7-0.4c0.3-0.1,0.6,0,0.8,0.1l0,0
			C2.7,20.5,2.6,20.5,2.6,20.6z M5.7,5.9L5.7,5.9L5.7,5.9C5.8,5.9,5.8,5.9,5.7,5.9L5.7,5.9L5.7,5.9L5.7,5.9L5.7,5.9L5.7,5.9L5.7,5.9
			L5.7,5.9L5.7,5.9l0.1-0.2C5.9,5.8,5.9,5.9,6,6c0,0.1,0.1,0.1,0.1,0.2C6,6.2,6,6.1,5.9,6.1C5.9,6,5.8,6,5.7,5.9z M9.5,9.4
			C9.5,9.5,9.5,9.5,9.5,9.4C9.5,9.5,9.5,9.5,9.5,9.4C9.4,9.5,9.5,9.4,9.5,9.4z M20.9,1.1C20.9,1.1,21,1.1,20.9,1.1
			C21,1.1,21,1.1,20.9,1.1C21,1.1,21,1.1,20.9,1.1c0.1,0.1,0.2,0.2,0.2,0.3l0,0c0,0.1,0,0.3-0.1,0.4c-0.1,0.3-0.2,0.5-0.5,0.7
			c-0.1,0.1-0.1,0.1-0.2,0.1l0,0c-0.1-0.2-0.1-0.4-0.1-0.6c0-0.1,0-0.2,0-0.3c0.1-0.3,0.2-0.5,0.4-0.7C20.8,1.2,20.8,1.1,20.9,1.1z
			 M3.9,3.9C3.9,3.9,4,3.9,3.9,3.9C4,3.9,4,4,4.1,4.1C4,4.1,3.9,4,3.9,3.9C3.9,4,3.9,3.9,3.9,3.9z"/>
		<path class="st0" d="M28.2,4.8c0.2,0,0.4,0,0.5-0.1c0.4-0.1,0.8-0.3,1.1-0.6C29.9,4,30,3.9,30.1,3.8l0,0l0.3,0.1l0,0h0.3l0,0h0.1
			l0,0h0.1l0,0c0,0,0,0,0.1,0h0.1c0.1,0,0.1,0,0.1,0c0.4,0,0.8-0.1,1.2-0.3l0,0c-0.1,0.4-0.1,0.9,0,1.3c0,0.3,0.1,0.6,0.2,0.9
			c0.1,0.3,0.3,0.6,0.5,0.9c0.4,0.5,1,0.9,1.7,1.1c0.3,0.1,0.7,0.1,1,0.1c0.1,0,0.2,0,0.3,0h0.1l0,0l0.2-0.1c0.1,0,0.2,0,0.3-0.1
			c0.6-0.3,1.1-0.9,1.2-1.6c0.1-0.3,0-0.7,0-1c0-0.1-0.1-0.2-0.1-0.3c-0.2-0.5-0.6-1-1.4-1c-0.1,0-0.2,0-0.3,0
			c-0.7,0.1-0.9,0.5-0.9,0.9s0.4,0.8,0.8,0.8c0.2,0,0.4-0.1,0.7-0.4c0.1-0.2,0.2-0.2,0.3-0.2s0.2,0.2,0.3,0.3l0,0c0,0.2,0,0.5,0,0.8
			c-0.1,0.5-0.4,0.9-0.9,1l0,0h-0.1h-0.2H36c-0.1,0-0.1,0-0.2,0c0,0,0,0-0.1,0c-0.2,0-0.5,0-0.7-0.1c-0.5-0.1-0.9-0.4-1.2-0.8
			c-0.2-0.2-0.3-0.4-0.3-0.6c-0.1-0.2-0.1-0.5-0.2-0.8c-0.1-0.5,0-1,0.2-1.5S34,2.3,34.3,2c0.4-0.3,0.8-0.6,1.3-0.7
			c0.3-0.1,0.7-0.2,1-0.2c0.7,0,1.3,0.2,1.9,0.5c0.4,0.2,0.9,0.6,1.2,1c0.4,0.4,0.7,0.9,0.9,1.3c0.4,0.9,0.5,2,0.2,3.1
			c-0.3,1-0.8,2-1.5,3c-0.1,0.1-0.1,0.2,0,0.3h0.1v0.1c0,0.1,0.1,0.1,0.2,0.1c0.1,0,0.1,0,0.1,0c1-0.7,2-1.3,3-1.5
			c0.5-0.1,0.9-0.2,1.4-0.2c0.6,0,1.2,0.1,1.7,0.4c0.5,0.2,0.9,0.5,1.3,0.9c0.4,0.4,0.7,0.8,1,1.2c0.5,0.9,0.7,2,0.4,3
			c-0.1,0.5-0.4,0.9-0.7,1.3c-0.4,0.4-0.8,0.7-1.2,0.8c-0.3,0.1-0.7,0.2-1.1,0.2c-0.1,0-0.3,0-0.4,0c-0.3,0-0.5-0.1-0.8-0.2
			c-0.2-0.1-0.4-0.2-0.6-0.3c-0.4-0.3-0.7-0.7-0.8-1.2c-0.1-0.3-0.1-0.5-0.1-0.8c0-0.1,0-0.1,0-0.2v-0.1v-0.2c0-0.1,0-0.1,0-0.1l0,0
			c0.1-0.4,0.5-0.8,1-0.9c0.2,0,0.3-0.1,0.5-0.1c0.1,0,0.2,0,0.3,0l0,0c0.2,0.1,0.3,0.2,0.3,0.3s-0.1,0.2-0.2,0.4
			c-0.3,0.3-0.4,0.6-0.3,0.9c0.1,0.3,0.5,0.6,0.8,0.6l0,0c0.2,0,0.7-0.1,0.8-0.9c0.1-0.5,0-0.9-0.3-1.2c-0.2-0.2-0.4-0.3-0.6-0.4
			c-0.1-0.1-0.2-0.1-0.4-0.1S44.3,12,44.2,12s-0.3,0-0.4,0c-0.7,0.1-1.3,0.6-1.6,1.2c0,0.1-0.1,0.2-0.1,0.3L42,13.7l0,0v0.1
			c0,0.1,0,0.2,0,0.3c0,0.3,0,0.6,0.1,1c0.2,0.6,0.5,1.2,1.1,1.7c0.3,0.2,0.6,0.4,0.9,0.5c0.4,0.1,0.6,0.2,0.9,0.2
			c0.2,0,0.4,0,0.6,0c0.2,0,0.5,0,0.7-0.1l0,0c-0.2,0.4-0.3,0.8-0.3,1.2c0,0.1,0,0.1,0,0.2v0.1v0.2l0,0v0.1l0,0v0.3l0,0l0.1,0.3
			c0,0,0,0,0,0.1c-0.1,0.1-0.2,0.2-0.3,0.3c-0.3,0.3-0.5,0.7-0.6,1.1c-0.2,0.8,0.1,1.8,0.8,2.3c0.3,0.2,0.7,0.4,1.1,0.4h0.1
			c0.1,0,0.1,0,0.2,0c0.3,0,0.9-0.1,1.2-0.8c0.2-0.3,0.1-0.6,0-0.7c-0.1-0.2-0.3-0.3-0.5-0.3s-0.4,0.1-0.5,0.2
			c-0.1,0.2-0.1,0.4-0.1,0.6c0.1,0.2,0,0.3,0,0.3c0,0.1-0.1,0.1-0.2,0.1h-0.1l0,0c-0.3,0-0.6-0.1-0.8-0.3c-0.5-0.4-0.7-1.1-0.5-1.6
			c0.1-0.3,0.3-0.5,0.5-0.8l0.1-0.1c0.1,0.1,0.1,0.2,0.2,0.3c0.3,0.3,0.7,0.6,1.1,0.7c0.2,0.1,0.5,0.1,0.7,0.1
			c0.3,0,0.5-0.1,0.7-0.2c0.2-0.1,0.3-0.3,0.4-0.4c0.1-0.1,0.1-0.3,0.1-0.4c0-0.3-0.2-0.6-0.3-0.8c-0.4-0.5-1-0.7-1.6-0.7
			c-0.3,0-0.7,0.1-1,0.2l0,0v-0.1v-0.2l0,0c0,0,0,0,0-0.1v-0.1v-0.1v-0.1l0,0c0-0.3,0.1-0.6,0.2-0.9c0.1-0.2,0.2-0.4,0.3-0.6
			c0.5-0.2,1-0.6,1.4-1c0.5-0.5,0.8-1.1,1-1.7c0.4-1.2,0.2-2.6-0.5-3.8c-0.3-0.5-0.7-1-1.2-1.4s-1-0.8-1.6-1s-1.2-0.4-1.9-0.4
			c-0.6,0-1.2,0.1-1.8,0.3c0,0-0.1,0-0.1,0.1l0.3-0.2C43,8.1,43,8,43,7.9c0-0.1,0-0.3,0.1-0.5c0.4-0.3,0.8-0.6,1.3-0.8
			C45.1,6.2,45.9,6,46.6,6c0.2,0,0.5,0,0.7,0.1c0.5,0.1,0.9,0.3,1.2,0.6s0.4,0.7,0.4,1s-0.2,0.6-0.5,0.6l0,0c-0.2,0-0.4-0.1-0.5-0.3
			c-0.1-0.1-0.1-0.2,0-0.3c0-0.1,0-0.2-0.1-0.3l0,0h-0.1c-0.1,0-0.2,0-0.2,0.1c-0.1,0.2-0.2,0.4-0.2,0.5c0,0.2,0.1,0.4,0.2,0.6
			c0.1,0.1,0.2,0.3,0.4,0.4l0,0C48,9,48,9.1,48.1,9.1c0.1,0,0.2,0.1,0.3,0.1s0.2,0,0.3,0c0.3,0,0.6-0.1,0.9-0.3
			c0.4-0.3,0.5-0.7,0.6-1c0.1-0.7-0.1-1.4-0.7-1.9c-0.5-0.4-1-0.6-1.7-0.7c-0.2,0-0.4,0-0.6,0c-0.7,0-1.4,0.1-2.1,0.4
			c0.3-0.2,0.7-0.4,1-0.6c0.4-0.2,0.9-0.4,1.3-0.5c0.3-0.1,0.7-0.1,0.9-0.1c0.1,0,0.2,0,0.3,0c0.2,0,0.4,0,0.6,0.1
			c0.2,0,0.4,0.1,0.6,0.2l0,0h0.1c0.1,0,0.1,0,0.2-0.1l0,0c0.1-0.1,0.1-0.2,0-0.3c-0.3-0.5-0.9-0.8-1.5-0.9c-0.1,0-0.3,0-0.4,0
			c-0.5,0-0.9,0.1-1.3,0.3l0,0c0.7-0.4,1.5-0.5,2-0.5c0.2,0,0.3,0,0.3,0l0,0c0.1,0,0.1,0,0.2-0.1c0.1-0.1,0.1-0.2,0-0.2
			c-0.3-0.8,0.2-2,0.2-2c0-0.1,0-0.2,0-0.3c0,0-0.1-0.1-0.2-0.1h-0.1c0,0-0.7,0.3-1.4,0.3c-0.2,0-0.5,0-0.6-0.1h-0.1
			c-0.1,0-0.1,0-0.1,0C47,0.9,47,0.9,47,1c0,0,0.1,1.3-0.5,2.3l0,0c0.2-0.5,0.4-1.1,0.2-1.7c-0.1-0.6-0.5-1.2-0.9-1.5h-0.1
			c-0.1,0-0.1,0-0.2,0.1l0,0c-0.1,0.1-0.1,0.2-0.1,0.3l0,0c0.1,0.2,0.2,0.4,0.2,0.6c0.1,0.2,0.1,0.4,0.1,0.6c0,0.4,0,0.8-0.1,1.3
			c-0.1,0.4-0.3,0.8-0.5,1.3c-0.2,0.3-0.4,0.7-0.6,1c0.4-0.9,0.5-1.8,0.4-2.7c-0.1-0.7-0.3-1.3-0.7-1.7c-0.4-0.5-1-0.7-1.6-0.7
			c-0.1,0-0.2,0-0.3,0c-0.3,0.1-0.7,0.2-1,0.6C41,1.1,40.9,1.6,41,1.9c0,0.1,0,0.2,0.1,0.3c0,0.1,0.1,0.2,0.1,0.2l0,0
			c0.1,0.2,0.2,0.3,0.4,0.4C41.8,2.9,42,3,42.2,3c0.2,0,0.4-0.1,0.5-0.2c0.1-0.1,0.1-0.2,0.1-0.3l0,0c0-0.1-0.1-0.1-0.2-0.1h-0.1
			h-0.1c-0.3,0-0.5-0.4-0.5-0.6c0-0.3,0.3-0.5,0.6-0.6h0.1c0.3,0,0.7,0.1,0.9,0.4c0.3,0.3,0.5,0.7,0.6,1.2c0.2,0.9,0,1.9-0.5,2.9
			c-0.2,0.5-0.5,0.9-0.9,1.3c-0.2,0.1-0.5,0.1-0.6,0.1c0,0,0,0-0.1,0c0.4-1.2,0.3-2.4-0.1-3.5c-0.2-0.6-0.6-1.1-1-1.6
			S40,1.1,39.4,0.8c-0.7-0.4-1.6-0.7-2.5-0.7c-0.4,0-0.9,0.1-1.3,0.2c-0.6,0.2-1.2,0.5-1.7,1c-0.5,0.4-0.8,0.9-1,1.4
			c-0.2,0.1-0.4,0.2-0.6,0.3c-0.3,0.1-0.6,0.2-0.9,0.2l0,0l0,0h-0.1h-0.1h-0.1c0,0,0,0-0.1,0h-0.1h-0.2h-0.1l0,0
			c0.4-0.7,0.3-1.9-0.5-2.5c-0.2-0.1-0.4-0.3-0.8-0.3l0,0c-0.1,0-0.3,0-0.4,0.1c-0.1,0.1-0.3,0.2-0.4,0.4c-0.3,0.5-0.2,1-0.1,1.4
			c0.1,0.4,0.4,0.8,0.7,1.1c0.1,0.1,0.2,0.1,0.3,0.2l-0.1,0.1c-0.2,0.2-0.5,0.4-0.8,0.5c-0.1,0-0.3,0.1-0.4,0.1
			c-0.5,0-0.9-0.2-1.2-0.6c-0.2-0.2-0.3-0.5-0.3-0.8c0-0.1,0-0.1,0-0.2c0-0.1,0.1-0.2,0.3-0.2c0,0,0.1,0,0.2,0c0.1,0,0.2,0,0.2,0
			c0.3,0,0.6-0.3,0.6-0.6s-0.2-0.6-0.6-0.6c-0.1,0-0.3,0-0.4,0.1c-0.6,0.3-0.8,0.8-0.8,1.2c0,0.1,0,0.1,0,0.2c0,0.4,0.1,0.8,0.4,1.2
			C26.8,4.4,27.5,4.8,28.2,4.8z M29.6,2.6c-0.2-0.2-0.4-0.5-0.5-0.7c0-0.1-0.1-0.3-0.1-0.4c0-0.2,0-0.3,0.1-0.3l0,0l0,0h0.1
			c0.1,0,0.2,0,0.2,0.1c0.2,0.1,0.3,0.4,0.4,0.7c0.1,0.3,0,0.6-0.1,0.8l0,0C29.7,2.7,29.7,2.6,29.6,2.6z M44.3,5.7L44.3,5.7
			L44.3,5.7C44.3,5.8,44.3,5.8,44.3,5.7L44.3,5.7L44.3,5.7L44.3,5.7L44.3,5.7L44.3,5.7L44.3,5.7L44.3,5.7L44.3,5.7l0.2,0.1
			c-0.1,0.1-0.2,0.1-0.3,0.2c-0.1,0-0.1,0.1-0.2,0.1C44,6,44.1,6,44.1,5.9C44.2,5.9,44.2,5.8,44.3,5.7z M40.8,9.5
			C40.7,9.5,40.7,9.5,40.8,9.5C40.7,9.5,40.7,9.5,40.8,9.5C40.7,9.4,40.8,9.5,40.8,9.5z M49.1,20.9C49.1,20.9,49.1,21,49.1,20.9
			C49.1,21,49.1,21,49.1,20.9C49.1,21,49.1,21,49.1,20.9c-0.1,0.1-0.2,0.2-0.3,0.2l0,0c-0.1,0-0.3,0-0.4-0.1
			c-0.3-0.1-0.5-0.2-0.7-0.5c-0.1-0.1-0.1-0.1-0.1-0.2l0,0c0.2-0.1,0.4-0.1,0.6-0.1c0.1,0,0.2,0,0.3,0c0.3,0.1,0.5,0.2,0.7,0.4
			C49,20.8,49.1,20.8,49.1,20.9z M46.3,3.9C46.3,3.9,46.3,4,46.3,3.9c0,0.1-0.1,0.1-0.2,0.2C46.1,4,46.2,3.9,46.3,3.9
			C46.2,3.9,46.3,3.9,46.3,3.9z"/>
		<path class="st0" d="M45.4,28.2c0,0.2,0,0.4,0.1,0.5c0.1,0.4,0.3,0.8,0.6,1.1c0.1,0.1,0.2,0.2,0.3,0.3l0,0l-0.1,0.3l0,0v0.3l0,0
			v0.1l0,0v0.1l0,0c0,0,0,0,0,0.1v0.1c0,0.1,0,0.1,0,0.1c0,0.4,0.1,0.8,0.3,1.2l0,0c-0.4-0.1-0.9-0.1-1.3,0c-0.3,0-0.6,0.1-0.9,0.2
			c-0.3,0.1-0.6,0.3-0.9,0.5c-0.5,0.4-0.9,1-1.1,1.7c-0.1,0.3-0.1,0.7-0.1,1c0,0.1,0,0.2,0,0.3v0.1l0,0l0.1,0.2c0,0.1,0,0.2,0.1,0.3
			c0.3,0.6,0.9,1.1,1.6,1.2c0.3,0.1,0.7,0,1,0c0.1,0,0.2-0.1,0.3-0.1c0.5-0.2,1-0.6,1-1.4c0-0.1,0-0.2,0-0.3
			c-0.1-0.7-0.5-0.9-0.9-0.9s-0.8,0.4-0.8,0.8c0,0.2,0.1,0.4,0.4,0.7c0.2,0.1,0.2,0.2,0.2,0.3s-0.2,0.2-0.3,0.3l0,0
			c-0.2,0-0.5,0-0.8,0c-0.5-0.1-0.9-0.4-1-0.9l0,0v-0.1v-0.2V36c0-0.1,0-0.1,0-0.2c0,0,0,0,0-0.1c0-0.2,0-0.5,0.1-0.7
			c0.1-0.5,0.4-0.9,0.8-1.2c0.2-0.2,0.4-0.3,0.6-0.3c0.2-0.1,0.5-0.1,0.8-0.2c0.5-0.1,1,0,1.5,0.2s0.9,0.5,1.2,0.8
			c0.3,0.4,0.6,0.8,0.7,1.3c0.1,0.3,0.2,0.7,0.2,1c0,0.7-0.2,1.3-0.5,1.9c-0.2,0.4-0.6,0.9-1,1.2c-0.4,0.4-0.9,0.7-1.3,0.9
			c-0.9,0.4-2,0.5-3.1,0.2c-1-0.3-2-0.8-3-1.5c-0.1-0.1-0.2-0.1-0.3,0v0.1h-0.1c-0.1,0-0.1,0.1-0.1,0.2c0,0.1,0,0.1,0,0.1
			c0.7,1,1.3,2,1.5,3c0.1,0.5,0.2,0.9,0.2,1.4c0,0.6-0.1,1.2-0.4,1.7c-0.2,0.5-0.5,0.9-0.9,1.3c-0.4,0.4-0.8,0.7-1.2,1
			c-0.9,0.5-2,0.7-3,0.4c-0.5-0.1-0.9-0.4-1.3-0.7c-0.4-0.4-0.7-0.8-0.8-1.2c-0.1-0.3-0.2-0.7-0.2-1.1c0-0.1,0-0.3,0-0.4
			c0-0.3,0.1-0.5,0.2-0.8c0.1-0.2,0.2-0.4,0.3-0.6c0.3-0.4,0.7-0.7,1.2-0.8c0.3-0.1,0.5-0.1,0.8-0.1c0.1,0,0.1,0,0.2,0h0.1h0.2
			c0.1,0,0.1,0,0.1,0l0,0c0.4,0.1,0.8,0.5,0.9,1c0,0.2,0.1,0.3,0.1,0.5c0,0.1,0,0.2,0,0.3l0,0c-0.1,0.2-0.2,0.3-0.3,0.3
			s-0.2-0.1-0.4-0.2c-0.3-0.3-0.6-0.4-0.9-0.3c-0.3,0.1-0.6,0.5-0.6,0.8l0,0c0,0.2,0.1,0.7,0.9,0.8c0.5,0.1,0.9,0,1.2-0.3
			c0.2-0.2,0.3-0.4,0.4-0.6c0.1-0.1,0.1-0.2,0.1-0.4s0.1-0.4,0.1-0.5s0-0.3,0-0.4c-0.1-0.7-0.6-1.3-1.2-1.6c-0.1,0-0.2-0.1-0.3-0.1
			L36.5,42l0,0h-0.1c-0.1,0-0.2,0-0.3,0c-0.3,0-0.6,0-1,0.1c-0.6,0.2-1.2,0.5-1.7,1.1c-0.2,0.3-0.4,0.6-0.5,0.9
			c-0.1,0.4-0.2,0.6-0.2,0.9c0,0.2,0,0.4,0,0.6c0,0.2,0,0.5,0.1,0.7l0,0C32.4,46.1,32,46,31.6,46c-0.1,0-0.1,0-0.2,0h-0.1h-0.2l0,0
			H31l0,0h-0.3l0,0l-0.3,0.1c0,0,0,0-0.1,0c-0.1-0.1-0.2-0.2-0.3-0.3c-0.3-0.3-0.7-0.5-1.1-0.6c-0.8-0.2-1.8,0.1-2.3,0.8
			c-0.2,0.3-0.4,0.7-0.4,1.1v0.1c0,0.1,0,0.1,0,0.2c0,0.3,0.1,0.9,0.8,1.2c0.3,0.2,0.6,0.1,0.7,0c0.2-0.1,0.3-0.3,0.3-0.5
			s-0.1-0.4-0.2-0.5c-0.2-0.1-0.4-0.1-0.6-0.1c-0.2,0.1-0.3,0-0.3,0c-0.1,0-0.1-0.1-0.1-0.2v-0.1l0,0c0-0.3,0.1-0.6,0.3-0.8
			c0.4-0.5,1.1-0.7,1.6-0.5c0.3,0.1,0.5,0.3,0.8,0.5l0.1,0.1c-0.1,0.1-0.2,0.1-0.3,0.2c-0.3,0.3-0.6,0.7-0.7,1.1
			c-0.1,0.2-0.1,0.5-0.1,0.7c0,0.3,0.1,0.5,0.2,0.7c0.1,0.2,0.3,0.3,0.4,0.4c0.1,0.1,0.3,0.1,0.4,0.1c0.3,0,0.6-0.2,0.8-0.3
			c0.5-0.4,0.7-1,0.7-1.6c0-0.3-0.1-0.7-0.2-1l0,0h0.1h0.2l0,0c0,0,0,0,0.1,0h0.1h0.1h0.1l0,0c0.3,0,0.6,0.1,0.9,0.2
			c0.2,0.1,0.4,0.2,0.6,0.3c0.2,0.5,0.6,1,1,1.4c0.5,0.5,1.1,0.8,1.7,1c1.2,0.4,2.6,0.2,3.8-0.5c0.5-0.3,1-0.7,1.4-1.2s0.8-1,1-1.6
			s0.4-1.2,0.4-1.9c0-0.6-0.1-1.2-0.3-1.8c0,0,0-0.1-0.1-0.1l0.2,0.3c0,0.1,0.1,0.1,0.2,0.1c0.1,0,0.3,0,0.5,0.1
			c0.3,0.4,0.6,0.8,0.8,1.3c0.4,0.7,0.6,1.5,0.6,2.2c0,0.2,0,0.5-0.1,0.7c-0.1,0.5-0.3,0.9-0.6,1.2s-0.7,0.4-1,0.4s-0.6-0.2-0.6-0.5
			l0,0c0-0.2,0.1-0.4,0.3-0.5c0.1-0.1,0.2-0.1,0.3,0c0.1,0,0.2,0,0.3-0.1l0,0v-0.1c0-0.1,0-0.2-0.1-0.2c-0.2-0.1-0.4-0.2-0.5-0.2
			c-0.2,0-0.4,0.1-0.6,0.2c-0.1,0.1-0.3,0.2-0.4,0.4l0,0c0,0.1-0.1,0.1-0.1,0.2c0,0.1-0.1,0.2-0.1,0.3s0,0.2,0,0.3
			c0,0.3,0.1,0.6,0.3,0.9c0.3,0.4,0.7,0.5,1,0.6c0.7,0.1,1.4-0.1,1.9-0.7c0.4-0.5,0.6-1,0.7-1.7c0-0.2,0-0.4,0-0.6
			c0-0.7-0.1-1.4-0.4-2.1c0.2,0.3,0.4,0.7,0.6,1c0.2,0.4,0.4,0.9,0.5,1.3c0.1,0.3,0.1,0.7,0.1,0.9c0,0.1,0,0.2,0,0.3
			c0,0.2,0,0.4-0.1,0.6c0,0.2-0.1,0.4-0.2,0.6l0,0v0.1c0,0.1,0,0.1,0.1,0.2l0,0c0.1,0.1,0.2,0.1,0.3,0c0.5-0.3,0.8-0.9,0.9-1.5
			c0-0.1,0-0.3,0-0.4c0-0.5-0.1-0.9-0.3-1.3l0,0c0.4,0.7,0.5,1.5,0.5,2c0,0.2,0,0.3,0,0.3l0,0c0,0.1,0,0.1,0.1,0.2
			c0.1,0.1,0.2,0.1,0.2,0c0.8-0.3,2,0.2,2,0.2c0.1,0,0.2,0,0.3,0c0,0,0.1-0.1,0.1-0.2v-0.1c0,0-0.3-0.7-0.3-1.4c0-0.2,0-0.5,0.1-0.6
			v-0.1c0-0.1,0-0.1,0-0.1C49.3,47,49.3,47,49.2,47c0,0-1.3,0.1-2.3-0.5l0,0c0.5,0.2,1.1,0.4,1.7,0.2c0.6-0.1,1.2-0.5,1.5-0.9v-0.1
			c0-0.1,0-0.1-0.1-0.2l0,0c-0.1-0.1-0.2-0.1-0.3-0.1l0,0c-0.2,0.1-0.4,0.2-0.6,0.2c-0.2,0.1-0.4,0.1-0.6,0.1c-0.4,0-0.8,0-1.3-0.1
			c-0.4-0.1-0.8-0.3-1.3-0.5c-0.3-0.2-0.7-0.4-1-0.6c0.9,0.4,1.8,0.5,2.7,0.4c0.7-0.1,1.3-0.3,1.7-0.7c0.5-0.4,0.7-1,0.7-1.6
			c0-0.1,0-0.2,0-0.3c-0.1-0.3-0.2-0.7-0.6-1c-0.3-0.3-0.8-0.4-1.1-0.3c-0.1,0-0.2,0-0.3,0.1c-0.1,0-0.2,0.1-0.2,0.1l0,0
			c-0.2,0.1-0.3,0.2-0.4,0.4c-0.1,0.2-0.2,0.4-0.2,0.6c0,0.2,0.1,0.4,0.2,0.5c0.1,0.1,0.2,0.1,0.3,0.1l0,0c0.1,0,0.1-0.1,0.1-0.2
			v-0.1v-0.1c0-0.3,0.4-0.5,0.6-0.5c0.3,0,0.5,0.3,0.6,0.6v0.1c0,0.3-0.1,0.7-0.4,0.9c-0.3,0.3-0.7,0.5-1.2,0.6
			c-0.9,0.2-1.9,0-2.9-0.5c-0.5-0.2-0.9-0.5-1.3-0.9c-0.1-0.2-0.1-0.5-0.1-0.6c0,0,0,0,0-0.1c1.2,0.4,2.4,0.3,3.5-0.1
			c0.6-0.2,1.1-0.6,1.6-1s0.9-0.9,1.2-1.5c0.4-0.7,0.7-1.6,0.7-2.5c0-0.4-0.1-0.9-0.2-1.3c-0.2-0.6-0.5-1.2-1-1.7
			c-0.4-0.5-0.9-0.8-1.4-1c-0.1-0.2-0.2-0.4-0.3-0.6C47.1,32,47,31.7,47,31.4l0,0l0,0v-0.1v-0.1v-0.1c0,0,0,0,0-0.1v-0.1v-0.2v-0.1
			l0,0c0.7,0.4,1.9,0.3,2.5-0.5c0.1-0.2,0.3-0.4,0.3-0.8l0,0c0-0.1,0-0.3-0.1-0.4c-0.1-0.1-0.2-0.3-0.4-0.4c-0.5-0.3-1-0.2-1.4-0.1
			c-0.4,0.1-0.8,0.4-1.1,0.7c-0.1,0.1-0.1,0.2-0.2,0.3l-0.1-0.1c-0.2-0.2-0.4-0.5-0.5-0.8c0-0.1-0.1-0.3-0.1-0.4
			c0-0.5,0.2-0.9,0.6-1.2c0.2-0.2,0.5-0.3,0.8-0.3c0.1,0,0.1,0,0.2,0c0.1,0,0.2,0.1,0.2,0.3c0,0,0,0.1,0,0.2c0,0.1,0,0.2,0,0.2
			c0,0.3,0.3,0.6,0.6,0.6s0.6-0.2,0.6-0.6c0-0.1,0-0.3-0.1-0.4c-0.3-0.6-0.8-0.8-1.2-0.8c-0.1,0-0.1,0-0.2,0c-0.4,0-0.8,0.1-1.2,0.4
			C45.8,26.8,45.4,27.5,45.4,28.2z M47.6,29.6c0.2-0.2,0.5-0.4,0.7-0.5c0.1,0,0.3-0.1,0.4-0.1c0.2,0,0.3,0,0.3,0.1l0,0l0,0v0.1
			c0,0.1,0,0.2-0.1,0.2c-0.1,0.2-0.4,0.3-0.7,0.4c-0.3,0.1-0.6,0-0.8-0.1l0,0C47.5,29.7,47.6,29.7,47.6,29.6z M44.5,44.3L44.5,44.3
			L44.5,44.3C44.4,44.3,44.4,44.3,44.5,44.3L44.5,44.3L44.5,44.3L44.5,44.3L44.5,44.3L44.5,44.3L44.5,44.3L44.5,44.3L44.5,44.3
			l-0.1,0.2c-0.1-0.1-0.1-0.2-0.2-0.3c0-0.1-0.1-0.1-0.1-0.2c0.1,0,0.1,0.1,0.2,0.1C44.3,44.2,44.4,44.2,44.5,44.3z M40.7,40.8
			C40.7,40.7,40.7,40.7,40.7,40.8C40.7,40.7,40.7,40.7,40.7,40.8C40.8,40.7,40.7,40.8,40.7,40.8z M29.3,49.1
			C29.3,49.1,29.2,49.1,29.3,49.1C29.2,49.1,29.2,49.1,29.3,49.1C29.2,49.1,29.2,49.1,29.3,49.1c-0.1-0.1-0.2-0.2-0.2-0.3l0,0
			c0-0.1,0-0.3,0.1-0.4c0.1-0.3,0.2-0.5,0.5-0.7c0.1-0.1,0.1-0.1,0.2-0.1l0,0C30,47.8,30,48,30,48.2c0,0.1,0,0.2,0,0.3
			c-0.1,0.3-0.2,0.5-0.4,0.7C29.4,49,29.4,49.1,29.3,49.1z M46.3,46.3C46.3,46.3,46.2,46.3,46.3,46.3c-0.1,0-0.1-0.1-0.2-0.2
			C46.2,46.1,46.3,46.2,46.3,46.3C46.3,46.2,46.3,46.3,46.3,46.3z"/>
		<path class="st0" d="M22,45.4c-0.2,0-0.4,0-0.5,0.1c-0.4,0.1-0.8,0.3-1.1,0.6c-0.1,0.1-0.2,0.2-0.3,0.3l0,0l-0.3-0.1l0,0h-0.3l0,0
			h-0.1l0,0h-0.1l0,0c0,0,0,0-0.1,0h-0.1c-0.1,0-0.1,0-0.1,0c-0.4,0-0.8,0.1-1.2,0.3l0,0c0.1-0.4,0.1-0.9,0-1.3
			c0-0.3-0.1-0.6-0.2-0.9c-0.1-0.3-0.3-0.6-0.5-0.9c-0.4-0.5-1-0.9-1.7-1.1c-0.3-0.1-0.7-0.1-1-0.1c-0.1,0-0.2,0-0.3,0H14l0,0
			l-0.2,0.1c-0.1,0-0.2,0-0.3,0.1c-0.6,0.3-1.1,0.9-1.2,1.6c-0.1,0.3,0,0.7,0,1c0,0.1,0.1,0.2,0.1,0.3c0.2,0.5,0.6,1,1.4,1
			c0.1,0,0.2,0,0.3,0c0.7-0.1,0.9-0.5,0.9-0.9s-0.4-0.8-0.8-0.8c-0.2,0-0.4,0.1-0.7,0.4c-0.1,0.2-0.2,0.2-0.3,0.2S13,45.1,12.9,45
			l0,0c0-0.2,0-0.5,0-0.8c0.1-0.5,0.4-0.9,0.9-1l0,0h0.1h0.2h0.1c0.1,0,0.1,0,0.2,0c0,0,0,0,0.1,0c0.2,0,0.5,0,0.7,0.1
			c0.5,0.1,0.9,0.4,1.2,0.8c0.2,0.2,0.3,0.4,0.3,0.6c0.1,0.2,0.1,0.5,0.2,0.8c0.1,0.5,0,1-0.2,1.5s-0.5,0.9-0.8,1.2
			c-0.4,0.3-0.8,0.6-1.3,0.7c-0.3,0.1-0.7,0.2-1,0.2c-0.7,0-1.3-0.2-1.9-0.5c-0.4-0.2-0.9-0.6-1.2-1c-0.4-0.4-0.7-0.9-0.9-1.3
			c-0.4-0.9-0.5-2-0.2-3.1c0.3-1,0.8-2,1.5-3c0.1-0.1,0.1-0.2,0-0.3h-0.1v-0.1c0-0.1-0.1-0.1-0.2-0.1c-0.1,0-0.1,0-0.1,0
			c-1,0.7-2,1.3-3,1.5c-0.5,0.1-0.9,0.2-1.4,0.2c-0.6,0-1.2-0.1-1.7-0.4c-0.5-0.2-0.9-0.5-1.3-0.9c-0.4-0.4-0.7-0.8-1-1.2
			c-0.5-0.9-0.7-2-0.4-3c0.1-0.5,0.4-0.9,0.7-1.3c0.4-0.4,0.8-0.7,1.2-0.8c0.3-0.1,0.7-0.2,1.1-0.2c0.1,0,0.3,0,0.4,0
			c0.3,0,0.5,0.1,0.8,0.2c0.2,0.1,0.4,0.2,0.6,0.3c0.4,0.3,0.7,0.7,0.8,1.2c0.1,0.3,0.1,0.5,0.1,0.8c0,0.1,0,0.1,0,0.2v0.1v0.2
			c0,0.1,0,0.1,0,0.1l0,0c-0.1,0.4-0.5,0.8-1,0.9c-0.2,0-0.3,0.1-0.5,0.1c-0.1,0-0.2,0-0.3,0l0,0c-0.2-0.1-0.3-0.2-0.3-0.3
			s0.1-0.2,0.2-0.4c0.3-0.3,0.4-0.6,0.3-0.9c-0.1-0.3-0.5-0.6-0.8-0.6l0,0c-0.2,0-0.7,0.1-0.8,0.9c-0.1,0.5,0,0.9,0.3,1.2
			c0.2,0.2,0.4,0.3,0.6,0.4c0.1,0.1,0.2,0.1,0.4,0.1s0.4,0.1,0.5,0.1s0.3,0,0.4,0C7.1,38.1,7.7,37.6,8,37c0-0.1,0.1-0.2,0.1-0.3
			l0.1-0.2l0,0v-0.1c0-0.1,0-0.2,0-0.3c0-0.3,0-0.6-0.1-1c-0.2-0.6-0.5-1.2-1.1-1.7c-0.3-0.2-0.6-0.4-0.9-0.5
			c-0.4-0.1-0.6-0.2-0.9-0.2c-0.2,0-0.4,0-0.6,0c-0.2,0-0.5,0-0.7,0.1l0,0c0.2-0.4,0.3-0.8,0.3-1.2c0-0.1,0-0.1,0-0.2v-0.1v-0.2l0,0
			V31l0,0v-0.3l0,0l-0.1-0.3c0,0,0,0,0-0.1c0.1-0.1,0.2-0.2,0.3-0.3c0.3-0.3,0.5-0.7,0.6-1.1c0.2-0.8-0.1-1.8-0.8-2.3
			c-0.3-0.2-0.7-0.4-1.1-0.4H3c-0.1,0-0.1,0-0.2,0c-0.3,0-0.9,0.1-1.2,0.8c-0.2,0.3-0.1,0.6,0,0.7C1.7,27.9,1.9,28,2.1,28
			s0.4-0.1,0.5-0.2c0.1-0.2,0.1-0.4,0.1-0.6c-0.1-0.2,0-0.3,0-0.3c0-0.1,0.1-0.1,0.2-0.1H3l0,0c0.3,0,0.6,0.1,0.8,0.3
			c0.5,0.4,0.7,1.1,0.5,1.6C4.2,29,4,29.2,3.8,29.5l-0.1,0.1c-0.1-0.1-0.1-0.2-0.2-0.3c-0.3-0.3-0.7-0.6-1.1-0.7
			c-0.2-0.1-0.5-0.1-0.7-0.1c-0.3,0-0.5,0.1-0.7,0.2c-0.2,0.1-0.3,0.3-0.4,0.4c-0.1,0.1-0.1,0.3-0.1,0.4c0,0.3,0.2,0.6,0.3,0.8
			c0.4,0.5,1,0.7,1.6,0.7c0.3,0,0.7-0.1,1-0.2l0,0v0.1v0.2l0,0c0,0,0,0,0,0.1v0.1v0.1v0.1l0,0c0,0.3-0.1,0.6-0.2,0.9
			C3.1,32.6,3,32.8,2.9,33c-0.5,0.2-1,0.6-1.4,1c-0.5,0.5-0.8,1.1-1,1.7c-0.4,1.2-0.2,2.6,0.5,3.8c0.3,0.5,0.7,1,1.2,1.4
			s1,0.8,1.6,1s1.2,0.4,1.9,0.4c0.6,0,1.2-0.1,1.8-0.3c0,0,0.1,0,0.1-0.1l-0.3,0.2c-0.1,0-0.1,0.1-0.1,0.2c0,0.1,0,0.3-0.1,0.5
			c-0.4,0.3-0.8,0.6-1.3,0.8c-0.7,0.4-1.5,0.6-2.2,0.6c-0.2,0-0.5,0-0.7-0.1C2.4,44,2,43.8,1.7,43.5s-0.4-0.7-0.4-1s0.2-0.6,0.5-0.6
			l0,0c0.2,0,0.4,0.1,0.5,0.3c0.1,0.1,0.1,0.2,0,0.3c0,0.1,0,0.2,0.1,0.3l0,0h0.1c0.1,0,0.2,0,0.2-0.1c0.1-0.2,0.2-0.4,0.2-0.5
			c0-0.2-0.1-0.4-0.2-0.6c-0.1-0.1-0.2-0.3-0.4-0.4l0,0c-0.1,0-0.1-0.1-0.2-0.1C2,41.1,1.9,41,1.8,41s-0.2,0-0.3,0
			c-0.3,0-0.6,0.1-0.9,0.3c-0.4,0.3-0.5,0.7-0.6,1c-0.1,0.7,0.1,1.4,0.7,1.9c0.5,0.4,1,0.6,1.7,0.7c0.2,0,0.4,0,0.6,0
			c0.7,0,1.4-0.1,2.1-0.4c-0.3,0.2-0.7,0.4-1,0.6c-0.4,0.2-0.9,0.4-1.3,0.5c-0.3,0.1-0.7,0.1-0.9,0.1c-0.1,0-0.2,0-0.3,0
			c-0.2,0-0.4,0-0.6-0.1c-0.2,0-0.4-0.1-0.6-0.2l0,0H0.3c-0.1,0-0.1,0-0.2,0.1l0,0c-0.1,0.1-0.1,0.2,0,0.3c0.3,0.5,0.9,0.8,1.5,0.9
			c0.1,0,0.3,0,0.4,0c0.5,0,0.9-0.1,1.3-0.3l0,0c-0.7,0.4-1.5,0.5-2,0.5c-0.2,0-0.3,0-0.3,0l0,0c-0.1,0-0.1,0-0.2,0.1
			c-0.1,0.1-0.1,0.2,0,0.2c0.3,0.8-0.2,2-0.2,2c0,0.1,0,0.2,0,0.3c0,0,0.1,0.1,0.2,0.1h0.1c0,0,0.7-0.3,1.4-0.3c0.2,0,0.5,0,0.6,0.1
			H3c0.1,0,0.1,0,0.1,0c0.1-0.1,0.1-0.1,0.1-0.2c0,0-0.1-1.3,0.5-2.3l0,0c-0.2,0.5-0.4,1.1-0.2,1.7c0.1,0.6,0.5,1.2,0.9,1.5h0.1
			c0.1,0,0.1,0,0.2-0.1l0,0c0.1-0.1,0.1-0.2,0.1-0.3l0,0c-0.1-0.2-0.2-0.4-0.2-0.6c-0.1-0.2-0.1-0.4-0.1-0.6c0-0.4,0-0.8,0.1-1.3
			c0.1-0.4,0.3-0.8,0.5-1.3c0.2-0.3,0.4-0.7,0.6-1c-0.4,0.9-0.5,1.8-0.4,2.7c0.1,0.7,0.3,1.3,0.7,1.7C6.4,49.8,7,50,7.6,50
			c0.1,0,0.2,0,0.3,0c0.3-0.1,0.7-0.2,1-0.6c0.3-0.3,0.4-0.8,0.3-1.1c0-0.1,0-0.2-0.1-0.3c0-0.1-0.1-0.2-0.1-0.2l0,0
			c-0.1-0.2-0.2-0.3-0.4-0.4c-0.2-0.1-0.4-0.2-0.6-0.2c-0.2,0-0.4,0.1-0.5,0.2c-0.1,0.1-0.1,0.2-0.1,0.3l0,0c0,0.1,0.1,0.1,0.2,0.1
			h0.1h0.1c0.3,0,0.5,0.4,0.5,0.6c0,0.3-0.3,0.5-0.6,0.6H7.6c-0.3,0-0.7-0.1-0.9-0.4c-0.3-0.3-0.5-0.7-0.6-1.2
			c-0.2-0.9,0-1.9,0.5-2.9c0.2-0.5,0.5-0.9,0.9-1.3c0.2-0.1,0.5-0.1,0.6-0.1c0,0,0,0,0.1,0c-0.4,1.2-0.3,2.4,0.1,3.5
			c0.2,0.6,0.6,1.1,1,1.6s0.9,0.9,1.5,1.2c0.7,0.4,1.6,0.7,2.5,0.7c0.4,0,0.9-0.1,1.3-0.2c0.6-0.2,1.2-0.5,1.7-1
			c0.5-0.4,0.8-0.9,1-1.4c0.2-0.1,0.4-0.2,0.6-0.3c0.3-0.1,0.6-0.2,0.9-0.2l0,0l0,0h0.1H19h0.1c0,0,0,0,0.1,0h0.1h0.2h0.1l0,0
			c-0.4,0.7-0.3,1.9,0.5,2.5c0.2,0.1,0.4,0.3,0.8,0.3l0,0c0.1,0,0.3,0,0.4-0.1c0.1-0.1,0.3-0.2,0.4-0.4c0.3-0.5,0.2-1,0.1-1.4
			c-0.1-0.4-0.4-0.8-0.7-1.1c-0.1-0.1-0.2-0.1-0.3-0.2l0.1-0.1c0.2-0.2,0.5-0.4,0.8-0.5c0.1,0,0.3-0.1,0.4-0.1
			c0.5,0,0.9,0.2,1.2,0.6c0.2,0.2,0.3,0.5,0.3,0.8c0,0.1,0,0.1,0,0.2c0,0.1-0.1,0.2-0.3,0.2c0,0-0.1,0-0.2,0c-0.1,0-0.2,0-0.2,0
			c-0.3,0-0.6,0.3-0.6,0.6s0.2,0.6,0.6,0.6c0.1,0,0.3,0,0.4-0.1c0.6-0.3,0.8-0.8,0.8-1.2c0-0.1,0-0.1,0-0.2c0-0.4-0.1-0.8-0.4-1.2
			C23.4,45.8,22.7,45.4,22,45.4z M20.6,47.6c0.2,0.2,0.4,0.5,0.5,0.7c0,0.1,0.1,0.3,0.1,0.4c0,0.2,0,0.3-0.1,0.3l0,0l0,0H21
			c-0.1,0-0.2,0-0.2-0.1c-0.2-0.1-0.3-0.4-0.4-0.7c-0.1-0.3,0-0.6,0.1-0.8l0,0C20.5,47.5,20.5,47.6,20.6,47.6z M5.9,44.5L5.9,44.5
			L5.9,44.5C5.9,44.4,5.9,44.4,5.9,44.5L5.9,44.5L5.9,44.5L5.9,44.5L5.9,44.5L5.9,44.5L5.9,44.5L5.9,44.5L5.9,44.5l-0.2-0.1
			c0.1-0.1,0.2-0.1,0.3-0.2c0.1,0,0.1-0.1,0.2-0.1c0,0.1-0.1,0.1-0.1,0.2C6,44.3,6,44.4,5.9,44.5z M9.4,40.7
			C9.5,40.7,9.5,40.7,9.4,40.7C9.5,40.7,9.5,40.7,9.4,40.7C9.5,40.8,9.4,40.7,9.4,40.7z M1.1,29.3C1.1,29.3,1.1,29.2,1.1,29.3
			C1.1,29.2,1.1,29.2,1.1,29.3C1.1,29.2,1.1,29.2,1.1,29.3c0.1-0.1,0.2-0.2,0.3-0.2l0,0c0.1,0,0.3,0,0.4,0.1
			c0.3,0.1,0.5,0.2,0.7,0.5c0.1,0.1,0.1,0.1,0.1,0.2l0,0C2.4,30,2.2,30,2,30c-0.1,0-0.2,0-0.3,0c-0.3-0.1-0.5-0.2-0.7-0.4
			C1.2,29.4,1.1,29.4,1.1,29.3z M3.9,46.3C3.9,46.3,3.9,46.2,3.9,46.3c0-0.1,0.1-0.1,0.2-0.2C4.1,46.2,4,46.3,3.9,46.3
			C4,46.3,3.9,46.3,3.9,46.3z"/>
	</g>
</g>
</svg>
