<?xml version="1.0" encoding="utf-8"?>
<!-- Generator: Adobe Illustrator 24.0.2, SVG Export Plug-In . SVG Version: 6.00 Build 0)  -->
<svg version="1.0" id="Layer_1" xmlns="http://www.w3.org/2000/svg" xmlns:xlink="http://www.w3.org/1999/xlink" x="0px" y="0px"
	 viewBox="0 0 102 71" style="enable-background:new 0 0 102 71;" xml:space="preserve">
<style type="text/css">
	.st0{fill:#FFFFFF;}
	.st1{fill:#CE0E2D;}
</style>
<g>
	<circle class="st0" cx="51" cy="35.5" r="35"/>
	<path class="st1" d="M12.2,2.6c0.4,0.4,0.7,0.8,1,1.3c0.7,1.1,1,2.5,1.1,3.9c0,0.5,0,1,0,1.5c0,0,0.1,0,0.1,0.1l0.8,0.5
		c0,0,0.1,0,0.1,0l0.7,0.5l0.1,0.1c0.1,0.1,0.2,0.1,0.3,0.2c0,0,0,0,0.1,0l0.3,0.3l0.1,0.1c0.1,0.1,0.1,0.1,0.2,0.2
		c0.1,0.1,0.1,0.1,0.2,0.2c0.1,0.1,0.2,0.2,0.3,0.3c0.8,0.9,1.4,2.1,1.9,3.4c0,0,0,0.1,0,0.1c0.8-1.1,1.8-2.1,2.9-3
		c0.7-0.5,1.5-1,2.6-1.6c0.9-0.4,1.9-0.7,3.1-0.9c2.2-0.3,4.4,0.2,6.2,1.3c1,0.5,1.8,1.3,2.4,1.9c0.3,0.3,0.5,0.6,0.7,0.8
		c0.1,0.1,0.2,0.2,0.3,0.3c0,0,0.1,0.1,0.1,0.1l0.4,0.6c0.1,0.2,0.3,0.5,0.4,0.8c0.8,2,0.4,4.5-0.9,6.3c-0.6,0.9-1.4,1.6-2.3,2.1
		c-0.4,0.2-0.7,0.4-1,0.5c-1.4,0.7-3.5,0.9-5.3-0.9c-0.2-0.2-0.4-0.4-0.6-0.7c-1.4-1.8-1-3.2-0.2-4c1-0.9,2.7-0.9,3.6,0.1
		c0.4,0.4,0.8,1.1,0.7,2.3c-0.1,0.6,0,1.1,0.2,1.3c0.3,0.3,0.9,0.2,1.5,0c0,0,0,0,0.1,0c0.6-0.5,1.2-1.1,1.6-1.8
		c0.9-1.3,1-3,0.4-4.3c0,0,0-0.1,0-0.1c0-0.1-0.1-0.3-0.2-0.4l-0.3-0.5c-0.1-0.1-0.2-0.2-0.3-0.3c-0.1-0.1-0.3-0.3-0.4-0.4
		c0,0-0.1-0.1-0.1-0.1c-0.5-0.5-1.2-1-2-1.4c-1.4-0.8-3-1-4.5-0.8c-0.8,0.1-1.6,0.4-2.2,0.7c-0.7,0.4-1.5,0.8-2.1,1.3
		c-1.3,1-2.3,2.3-3,3.7c-0.6,1.4-0.9,3-0.9,4.7c0.1,1.6,0.6,3.2,1.3,4.6c0.5,1,1.2,1.9,2,2.7c1.5,1.5,3.4,2.6,5.6,3.2
		c1.6,0.4,3.3,0.6,5,0.6c1.8-0.1,3.5-0.4,5-0.9c3-1.1,5.7-3.5,7.4-6.7c1.7-2.9,2.8-6.3,3.3-10.2c0.1-0.4,0.4-0.7,0.8-0.7
		c0.1,0,0.2,0.1,0.4,0.1c0.1-0.1,0.2-0.1,0.4-0.1c0.2,0,0.4,0.1,0.6,0.2c0.1,0.1,0.2,0.3,0.2,0.4c0.5,3.9,1.6,7.3,3.3,10.1
		c0.8,1.3,1.7,2.5,2.7,3.6c1.4,1.4,3,2.5,4.8,3.1c1.5,0.6,3.2,0.9,5,0.9c1.8,0.1,3.5-0.1,5-0.6c3.3-0.9,6.1-3.1,7.5-5.9
		c0.8-1.4,1.2-3,1.3-4.6c0.1-1.7-0.2-3.3-0.9-4.7c-0.5-1.1-1.1-2-2-2.9c-0.3-0.3-0.6-0.6-1-0.9c-0.7-0.6-1.5-1-2.1-1.3
		c-0.6-0.3-1.3-0.6-2.2-0.7c-1.5-0.2-3.2,0-4.5,0.8c-0.8,0.4-1.4,0.9-2,1.4c-0.2,0.2-0.3,0.3-0.5,0.5c-0.1,0.1-0.2,0.2-0.3,0.3
		L66,16.2c-0.1,0.1-0.2,0.3-0.2,0.4c0,0,0,0.1,0,0.1c-0.6,1.3-0.5,2.9,0.4,4.2c0.3,0.5,0.6,0.8,0.9,1.2c0.2,0.2,0.5,0.4,0.7,0.6
		c0,0,0,0,0.1,0c0.5,0.2,1.1,0.3,1.4,0.1c0.2-0.2,0.3-0.7,0.2-1.3c-0.1-1.3,0.4-2.3,1.4-2.8c1-0.5,2.3-0.3,3.1,0.5l0,0
		c0.4,0.4,1.4,1.7-0.3,3.9c-1,1.3-2.2,2-3.5,2.1c-0.9,0.1-1.7-0.1-2.3-0.4c-0.4-0.1-0.8-0.3-1.2-0.6c-0.5-0.3-1-0.7-1.4-1.1
		c-0.3-0.3-0.6-0.7-0.9-1.1c-1.4-1.8-1.7-4.3-0.9-6.3c0.1-0.3,0.2-0.6,0.4-0.8l0.4-0.6c0,0,0-0.1,0.1-0.1c0.1-0.1,0.2-0.2,0.3-0.3
		c0.2-0.3,0.4-0.6,0.7-0.8c0.7-0.7,1.5-1.4,2.5-1.9c1.8-1.1,4-1.5,6.2-1.3c1.2,0.2,2.2,0.5,3.1,0.9c1.1,0.5,1.9,1,2.6,1.6
		c0.5,0.4,1,0.8,1.5,1.3c0.5,0.5,1,1.1,1.4,1.7c0,0,0-0.1,0-0.1c0.4-1.3,1.1-2.5,1.9-3.4c0.1-0.2,0.3-0.3,0.5-0.5
		c0.1-0.1,0.1-0.1,0.2-0.2l0.3-0.3c0,0,0,0,0.1,0c0.1-0.1,0.2-0.1,0.3-0.2l0.1-0.1l0.7-0.5c0,0,0,0,0.1,0l0.8-0.4
		c0.1,0,0.1-0.1,0.2-0.1c0-0.5,0-1,0-1.5c0.1-1.4,0.4-2.8,1.1-3.9c1.4-2.4,4.3-3.7,7.1-3.3c1.3,0.2,2.5,0.8,3.3,1.6
		c0.1,0.1,0.2,0.2,0.3,0.3c0.1,0.1,0.2,0.3,0.3,0.4c0.6,0.7,1.7,2.2,0.9,4.5c-0.4,1.1-1.1,1.5-1.6,1.6c-0.6,0.1-1.2-0.1-1.7-0.5
		c-0.5-0.5-0.7-1.1-0.6-1.7C97,6.2,97.4,5.7,98,5.4c0.5-0.3,0.6-0.5,0.6-0.6c0.1-0.2,0-0.5-0.1-0.7c-0.1-0.1-0.2-0.3-0.3-0.4l0,0
		c-0.7-0.7-1.6-1.1-2.6-1.2c-2-0.2-4,0.8-4.8,2.5c-0.4,0.8-0.6,1.8-0.6,2.8c0,0.2,0,0.3,0,0.5c0.4-0.1,0.8-0.1,1.1-0.2
		c1.5-0.1,2.9,0.2,4.1,0.8c0.7,0.4,1.3,0.8,1.7,1.2c0.6,0.6,1,1.3,1.3,2.1c0.2,0.5,0.1,1.3-0.1,1.8c-0.2,0.4-0.5,0.9-0.8,1.2
		c-0.8,0.7-1.7,1-2.4,1.1c-1.9,0.2-3.8-0.5-5.2-1.9c-0.7-0.7-1.3-1.7-1.7-2.6c0,0,0-0.1,0-0.1l-0.3,0.1l-0.7,0.4l-0.1,0.1
		c-0.1,0-0.1,0.1-0.2,0.1l-0.3,0.3c-0.1,0.1-0.2,0.1-0.2,0.2c-0.1,0.1-0.2,0.2-0.3,0.3c0,0,0,0,0,0c-0.7,0.7-1.2,1.6-1.6,2.6
		c-0.2,0.6-0.4,1.3-0.5,2c0.7,1.6,1,3.5,0.9,5.5c-0.1,2.2-0.7,4.2-1.7,6c-1.9,3.6-5.5,6.3-9.6,7.4c-1.9,0.5-3.9,0.7-6,0.6
		c-2.1-0.1-4.1-0.5-5.9-1.3c-1.8-0.7-3.5-1.9-5-3.4c-1.4-1.4-2.6-3-3.4-4.8c-0.1-0.1-0.1-0.3-0.2-0.4l0.2,1c0.1,0.3,0,0.5-0.2,0.7
		c-0.2,0.2-0.5,0.7-0.8,1.3c0.2,1.6,0.5,3.3,1,4.8c0.8,2.5,2.1,4.6,3.7,6.2c0.5,0.5,1.1,1,1.6,1.4c1.3,0.9,2.7,1.4,3.9,1.4
		c1.3,0,2.4-0.5,3.2-1.4c0.6-0.7,0.8-1.8,0.1-2.5c0,0-0.1-0.1-0.1-0.1c-0.4-0.4-1.2-0.7-1.9-0.6c-0.4,0.1-0.6,0.3-0.8,0.7
		c-0.2,0.4-0.6,0.5-0.9,0.4l-0.2-0.1c-0.1,0-0.2-0.1-0.3-0.2c-0.2-0.2-0.3-0.4-0.2-0.7c0.1-0.7,0.4-1.2,0.8-1.6
		c0.4-0.4,1-0.7,1.7-0.9c0.5-0.1,1.1-0.1,1.7,0l0.1,0c0.2,0,0.5,0.1,0.8,0.3c0.2,0.1,0.5,0.2,0.7,0.4c0.2,0.1,0.5,0.3,0.7,0.5
		c0.7,0.7,1.2,1.7,1.2,2.7c0.1,1.5-0.5,2.7-1,3.4c-1.3,1.9-3.6,2.9-5.9,2.7c-1.9-0.2-3.7-0.9-5.5-2.3c-0.5-0.4-1-0.8-1.4-1.2
		c-1.6-1.6-2.8-3.5-3.7-5.6c0.2,1.3,0.5,2.5,0.9,3.6c0.5,1.5,1,2.9,1.7,4c0.6,1,1.3,1.8,1.9,2.4c0.3,0.3,0.5,0.5,0.8,0.7
		c0.4,0.4,0.9,0.8,1.6,1.2c0.5,0.3,1.2,0.6,1.8,0.9l0.1,0.1c0.1,0,0.2,0.1,0.2,0.2c0.2,0.2,0.2,0.4,0.2,0.6l0,0.2
		c0,0.3-0.3,0.6-0.6,0.7c-1.8,0.4-3.8-0.1-5.4-1.2c-0.3-0.2-0.7-0.5-1-0.8c-1.1-1.1-1.8-2.4-2.2-3.5c0,0,0,0,0-0.1
		c0.6,2.5,2.3,4.5,3.3,5.5c0.4,0.4,0.8,0.7,0.8,0.7c0,0,0,0,0.1,0.1c0.2,0.2,0.2,0.4,0.2,0.6c0,0.3-0.2,0.5-0.4,0.6
		c-2.5,1.1-4.1,4.9-4.1,4.9c-0.1,0.3-0.4,0.5-0.7,0.5c-0.2,0-0.4-0.1-0.5-0.2c-0.1-0.1-0.1-0.2-0.2-0.3c0,0-0.9-2.2-2.4-3.7
		c-0.5-0.5-1.1-0.9-1.7-1.2c-0.1,0-0.2-0.1-0.2-0.2c-0.1-0.1-0.2-0.3-0.2-0.4c0-0.3,0.1-0.5,0.3-0.7c0,0,3.2-2.6,4-6.2c0,0,0,0,0,0
		c-0.7,1.5-1.6,3.2-3.2,4.3c-1.6,1.1-3.6,1.6-5.4,1.2c-0.1,0-0.3-0.1-0.4-0.2c-0.1-0.1-0.2-0.3-0.2-0.5l0-0.2c0-0.3,0.1-0.6,0.4-0.8
		l0.1-0.1c0.7-0.3,1.3-0.6,1.9-0.9c0.6-0.4,1.1-0.8,1.6-1.2c0.9-0.9,1.9-1.8,2.6-3.1c0.7-1.1,1.2-2.5,1.7-4c0.4-1.1,0.7-2.4,0.9-3.7
		c-1.1,2.8-2.9,5.2-5.1,6.9c-1.8,1.4-3.6,2.2-5.5,2.3c-1.9,0.2-3.9-0.5-5.2-1.9c-0.3-0.3-0.5-0.5-0.7-0.8c-0.5-0.8-1.1-2-1-3.4
		c0.1-1.3,0.9-2.5,1.9-3.2c0.3-0.2,0.5-0.3,0.8-0.4c0.3-0.2,0.6-0.2,0.8-0.2l0.1,0c0.7-0.1,1.2-0.1,1.7,0c0.7,0.1,1.3,0.4,1.7,0.8
		c0.4,0.4,0.7,1,0.8,1.6c0.1,0.4-0.1,0.7-0.5,0.9l-0.2,0.1c-0.3,0.1-0.6,0-0.8-0.2c-0.1-0.1-0.1-0.1-0.2-0.2
		c-0.1-0.2-0.2-0.3-0.3-0.4c-0.6-0.6-1.8-0.2-2.4,0.3c-0.8,0.7-0.6,1.8,0,2.6c0.1,0.1,0.2,0.2,0.3,0.3c0.7,0.7,1.8,1.2,2.9,1.1
		c1.3,0,2.6-0.5,3.9-1.4c2.4-1.7,4.3-4.4,5.3-7.6c0.5-1.6,0.9-3.2,1.1-4.9c-0.4-0.7-0.9-1.3-1.2-1.5c-0.1-0.1-0.1-0.1-0.1-0.2
		c-1.9,3.5-4.8,6.2-8.1,7.6c-1.8,0.8-3.8,1.2-5.9,1.3c-2.1,0.1-4.1-0.1-6-0.6c-2.6-0.7-5.2-2.1-7.1-4c-1-1-1.8-2.1-2.5-3.3
		c-1-1.8-1.5-3.8-1.7-6c-0.1-2,0.3-3.9,0.9-5.5c-0.1-0.7-0.3-1.4-0.5-2c-0.4-1.1-0.9-1.9-1.6-2.6c0,0,0,0,0,0c0,0,0,0-0.1-0.1
		c-0.1-0.1-0.2-0.1-0.2-0.2c-0.1-0.1-0.2-0.1-0.3-0.2L15,12.4c-0.1,0-0.1-0.1-0.2-0.1l-0.1-0.1l-0.7-0.4l-0.3-0.1c0,0,0,0.1-0.1,0.1
		c-0.9,2.5-3.6,4.9-6.9,4.5c-0.7-0.1-1.6-0.3-2.4-1.1l-0.1-0.1c-0.3-0.3-0.6-0.7-0.8-1.2c-0.2-0.4-0.3-1.2-0.1-1.8
		c0.6-1.8,2-2.7,3-3.3C7.7,8.3,9.1,8,10.6,8.1c0.4,0,0.7,0.1,1.1,0.2c0-0.2,0-0.3,0-0.5c0-1.1-0.2-2-0.6-2.8
		c-0.2-0.4-0.5-0.8-0.8-1.1c-1-1-2.6-1.6-4-1.4C5.3,2.6,4.4,3,3.8,3.7C3.6,3.8,3.5,3.9,3.4,4.1c-0.1,0.3-0.2,0.7,0.1,1
		C3.6,5.2,3.8,5.3,4,5.4c0.3,0.1,0.5,0.3,0.7,0.5c0.7,0.7,0.7,1.9-0.1,2.7C3.8,9.3,2.7,9.3,2,8.6C1.7,8.3,1.5,7.9,1.3,7.5
		c-0.8-2.1,0-3.7,0.9-4.6c0.1-0.1,0.2-0.3,0.3-0.4c0.9-1,2.1-1.7,3.6-1.9C8.3,0.2,10.6,1,12.2,2.6z M10.5,10.6c-1,0-1.9,0.2-2.7,0.6
		c-0.4,0.2-0.8,0.5-1.1,0.8c-0.3,0.4-0.5,0.7-0.5,0.9c0,0,0,0,0,0c0,0,0,0,0,0c0,0.1,0.1,0.1,0.1,0.2c0.2,0.2,0.5,0.3,0.8,0.3
		c0.7,0.1,1.6-0.2,2.4-0.7c0.7-0.5,1.3-1.2,1.7-2.1c0,0,0,0,0,0C10.9,10.7,10.7,10.6,10.5,10.6z M50.5,36.7
		C50.5,36.7,50.6,36.7,50.5,36.7c0.1,0,0.1-0.1,0.1-0.1c0.1,0,0.2,0,0.2-0.1c0,0,0,0,0,0l0,0c0,0,0,0,0,0l0.1,0l0.1,0c0,0,0,0,0,0
		l0,0c0,0,0,0,0.1,0c0.1,0,0.2,0.1,0.3,0.1c-0.1-0.4-0.2-0.7-0.3-1.1c-0.1-0.2-0.1-0.5-0.2-0.7c-0.1,0.2-0.1,0.5-0.2,0.7
		C50.7,36,50.6,36.3,50.5,36.7z M51,20.2c0,0,0-0.1,0-0.1C51,20.1,51,20.2,51,20.2C51,20.2,51,20.2,51,20.2z M95.6,13.2
		c0.1,0,0.1-0.1,0.1-0.2c0,0,0,0,0,0c0,0,0,0,0,0c0-0.2-0.2-0.5-0.5-0.9c0,0,0-0.1-0.1-0.1c-0.3-0.3-0.6-0.5-1-0.7
		c-0.8-0.4-1.7-0.7-2.7-0.6c-0.2,0-0.5,0-0.7,0.1c0,0,0,0,0,0c0.3,0.6,0.6,1.1,1,1.5c0.2,0.2,0.4,0.4,0.7,0.5
		c0.8,0.5,1.6,0.8,2.3,0.7C95.2,13.4,95.5,13.3,95.6,13.2z M51,45.1c0.1,0,0.2,0,0.3,0.1c-0.1-0.3-0.2-0.6-0.3-0.9
		c-0.1,0.3-0.2,0.6-0.3,0.9C50.8,45.2,50.9,45.1,51,45.1z"/>
</g>
</svg>
