<?xml version="1.0" encoding="utf-8"?>
<!-- Generator: Adobe Illustrator 24.1.1, SVG Export Plug-In . SVG Version: 6.00 Build 0)  -->
<svg version="1.1" id="Camada_1" xmlns="http://www.w3.org/2000/svg" xmlns:xlink="http://www.w3.org/1999/xlink" x="0px" y="0px"
	 viewBox="0 0 80.9 79.8" style="enable-background:new 0 0 80.9 79.8;" xml:space="preserve">
<style type="text/css">
	.st0{fill:#FFB71B;}
</style>
<g>
	<g>
		<path class="st0" d="M80.3,37.9c0.3,0.5,0.5,1.3,0.5,1.9V40l0,0v0.3l0,0l0,0l0,0l0,0v0.3c0,0.5-0.3,1.3-0.5,1.9v0.3l0,0V43l0,0
			h-0.3v0.3l0,0l0,0v0.3l0,0h-0.3v0.3l0,0l0,0V44c-0.3,0.3-0.3,0.5-0.5,0.5l0,0v0.3l0,0h0v0.3l0,0l0,0L79,45.4l0,0l0,0l0,0l-0.3,0.3
			l0,0v0.3L45.8,77.8c-2.7,2.7-7.2,2.7-9.9,0c-2.7-2.7-2.7-7.2,0-9.6L56.8,47H7.2C3.2,47,0,44,0,40s3.2-7.2,7.2-7.2h49.5L35.9,11.9
			c-2.7-2.7-2.7-7.2,0-9.9c2.7-2.7,7.2-2.7,9.9,0l32.9,32.9l0,0l0,0l0.3,0.3l0,0l0,0v0.3h0.3v0.3l0,0l0,0h0.3l0,0V36l0,0
			c0.3,0.3,0.3,0.5,0.5,0.5v0.3l0,0v0.3l0,0h0.3v0.3l0,0l0,0v0.3l0,0h0.3v0.3H80.3L80.3,37.9C80.3,37.6,80.3,37.9,80.3,37.9z"/>
	</g>
</g>
</svg>
