<?xml version="1.0" encoding="utf-8"?>
<!-- Generator: Adobe Illustrator 24.0.3, SVG Export Plug-In . SVG Version: 6.00 Build 0)  -->
<svg version="1.1" id="Layer_1" xmlns="http://www.w3.org/2000/svg" xmlns:xlink="http://www.w3.org/1999/xlink" x="0px" y="0px"
	 viewBox="0 0 1000 1000" style="enable-background:new 0 0 1000 1000;" xml:space="preserve">
<style type="text/css">
	.st0{fill:#CE0E2D;}
</style>
<g>
	<path class="st0" d="M351.9,98.5c21.8,66.4,28.3,136,41.6,204.1c5.4,27.6,7.9,55.7,12,83.5c2.7,18.3,3.1,36.7,0.8,55
		C390.9,561.7,412,677.3,453.8,790c2.1,5.7,5.1,11.1,8,16.5c12.7,24.2,12.7,24.2,38.1,15.4c24.8-8.6,50.3-10.5,76.1-7.6
		c33.1,3.7,66.1-0.2,99.1-0.2c14.9,0,22.5-5.3,22.3-21.5c-0.4-35.4,5-70.4,1.2-106.3c-5.4-50.2-21.8-95.3-49.5-136.6
		c-19.8-29.5-41.7-57.5-62.2-86.5c-5.3-7.6-14.1-13.5-13.9-30.1c69.6,76.9,135.6,149.6,138.7,257.5c0.9,31.8,4.5,63.2-1.2,95.1
		c-4.3,24.4-2,24.3,21.3,25.9C794,816,849.6,800.7,900,762.4c26.5-20.2,42.9-44.3,44.2-76.5c3.4-83.4-12.6-163.2-49.7-238.4
		c-5.7-11.5-15.5-18.7-25.2-26.3c-47.7-37.4-100.7-64.9-158.5-83.3c-29.1-9.3-58-19.2-87-28.9c-57.9-19.4-104.8-57.4-137.5-105.4
		c-25.2-37.1-46.6-80.5-54.6-127.3c-1.2-7.2-1.1-14.8-8.2-19.7c-9.6-2.6-11.2,7.1-16.8,10.8c-18.8,12.3-44.1,5.6-53.2-13.7
		c-3.7-7.9-0.6-14,6.1-18.8c11.4,17.2,30-15.3,41,6c5.5,10.7,9.2,2.3,12.1-1.9c5.4-7.9,9.9-11.7,20.8-7c11.8,5.1,14.2,12.8,11.9,23
		c-5.3,23.4,4.5,42.9,14.2,62.9c20.5,42,46.8,80.5,73.4,118.6c15,21.6,39,33.4,61.5,45.4c29.1,15.6,59.8,28,92.3,35.3
		c55.4,12.5,107.7,32.3,155.6,63.4c35.9,23.3,64.2,52.6,80.7,92.6c31.9,77,53.4,155.2,30.7,239.3c-4.9,18.3-11.6,35.7-26.7,47.1
		c-46.3,34.8-93.7,67.2-155.8,65.2c-15.8-0.5-31.7,2.6-47.6,4.3c-4.8,0.5-13.1,0.3-13.8,2.5c-11.7,33.7-42.4,22.4-64.9,25.7
		c-28.5,4.2-52.9,23.2-82.9,20.2c-8.2-0.8-16.7,1.9-25,1.6c-7.1-0.3-10.1-6-10-12.8c0.2-6.7,6.2-7.9,10.5-7.7
		c31.2,1.8,59.2-12.7,89-18.2c16-2.9,32.7,7.7,47.7-0.9c-1.9-10.1-7.4-9.4-12-9.5c-34.3-1-68.6-1.8-102.9-2.7
		c-22.4-0.6-43.8,4.8-64.5,12.8c-8.1,3.1-11.1,20.4-5.9,27.6c3.2,4.4,5.6,2.4,8.5,0c7.2-5.9,15.2-4.7,18.5,2.8
		c5.4,12.6-11.9,16.6-13.9,15.8c-12.8-5.6-27.7,22-40.2-4c-3.2-6.6-17.4,8.4-26.5,13.6c-10.1,5.8-19.5,13.9-22-6.7
		c-0.9-7.6-8.3-7.8-14.6-6.1c-11.8,3.2-23.7,6.2-35.3,10.1c-25.3,8.6-50.7,7.3-76.1,1.2c-45.4-10.9-87.9-30.1-131.2-47.2
		c-14.8-5.8-28.3-14.7-39.9-25.9C60.9,768,36,698.8,37,625.7c1-69.4,31-133,81.6-183.9c11.2-11.3,23-22,35-32.6
		c25.7-22.7,50-47.5,77.9-67.2c43.8-31,57.1-74.5,58.6-124c1.5-47.7-0.3-95.3-5.1-142.8c-1.1-11.1-5.9-27.2,16.5-21.4
		c1.9,0.5,4.7-0.7,6.6-1.9c23.3-14,27.9-13,36.4,11.6c4,11.5,5.4,23.8,7.9,35.6c-4.4-8.6-8.2-17.6-13.4-25.5
		c-2.4-3.6-10.3-7.6-12.1-3.5c-5.8,12.8-19.7,10.7-27.2,17.4c-6.5,5.9-0.9,18.5-0.1,28.1c0.8,9.7,2.3,19.3,3.3,29
		c8.7,86.7-14.9,164.6-64.1,235.5l0.7,0.6c-3.3-6,4.5-14.4-6.2-20.6c-30.7,28.8-62.2,57.6-92.8,87.3c-47.5,46-74.2,103.1-83,167.8
		c-8.9,65.3,12.3,121.9,56.5,170.3l-1.3-1.1c2.4,4.1,4.2,8.8,7.3,12.3c40.5,44.7,94.9,63.1,150.5,78.9c9.8,2.8,20.2,6.9,31.9,2.1
		c-13.5-23.7-38.9-38.6-43.4-66.8c19.2,20.9,37.2,42.5,58.2,61.4c8.3,7.5,16.3,14.6,29.2,10.7c20.5-6.1,41.5-11,60.9-21.6
		c-64.9-94.1-78.3-120.5-83.8-163.8c-6.8-53.3,6.2-148.3,24.2-177.9c-3.1,26.5-6.9,53-9.2,79.7c-4.7,55.3-5.1,110.1,20,161.9
		c12.9,26.7,31.9,49.3,47.6,74c14.5,22.8,16.2,22.5,40.2,10.9c12.3-5.9,17.3-11.6,8.8-24.9c-13.9-21.8-23.2-46.1-29.6-70.9
		c-26.6-102.4-43.7-205.6-23.9-311.7c1.1-5.8-0.1-12.2-1.1-18.1c-11.6-72.4-24.3-144.7-34.6-217.3
		C360.9,168.5,348.8,134.5,351.9,98.5z M443.9,872.8c16.1-4.7,23.8-8.9,29.7-19C460.2,851.7,453.9,857.8,443.9,872.8z"/>
	<path class="st0" d="M905.6,710.4c-10.8-12.6-7-25.4-7.4-37c-1.4-35.5-2.9-70.9-11.4-105.8c-11.4-47.1-35-85.4-74.7-114.2
		c-30.9-22.3-63.5-41.5-97-59.4c-25.8-13.8-50.8-29.2-77.1-44.5c11.6-8.7,18.5-0.3,24.9,3.4c47.7,27.6,97.2,51.7,144,81
		c59.6,37.2,91.1,90.8,100.6,158.8C912.9,631.2,915.3,669.8,905.6,710.4z"/>
	<path class="st0" d="M524,478.2c86,50.8,141.2,211.2,131.9,295.3c-10.2-4.1-8.3-13.9-9.1-21.2C635.2,650.9,602,559.5,527,486.8
		C524.8,484.7,521.5,482.2,524,478.2z"/>
	<path class="st0" d="M790.5,521.5c5.8-1,9.1,2.8,11.8,6.7c36.5,53.9,58.1,112.9,60.4,178.3c0.3,9.6,1.5,19.7-5.4,29.9
		c-8.7-3.6-5.5-11.9-5.9-17.3c-4.2-64.7-22.6-125-54.3-181.3c-3-5.3-6.6-10.4-5.9-16.9L790.5,521.5z"/>
	<path class="st0" d="M487,781.1c-41.6-81.7-60.3-168.8-60.8-260.1c10.6,43.4,12.6,88.2,23.4,131.8
		C460.4,696.1,479.1,737.1,487,781.1z"/>
	<path class="st0" d="M515.9,541.8c36.1,65.8,56.8,136.2,66.6,210.1C557.2,682.7,540.5,610.8,515.9,541.8z"/>
	<path class="st0" d="M723.5,522c45.1,72.1,75.2,148.5,63.9,236.3C788.7,673.3,758,597.1,723.5,522z"/>
	<path class="st0" d="M435.3,226.5c-15.4-27.8-25.6-57.4-31.4-88.5C419.1,165.9,429.5,195.4,435.3,226.5z"/>
	<path class="st0" d="M495.7,231c8,13.2,15.9,26.4,23.9,39.6C503.3,262.5,497.6,247.9,495.7,231z"/>
	<path class="st0" d="M476.6,401.6c-14.9-15.2-17.1-27.3-14.6-41C466.1,372,470.2,383.5,476.6,401.6z"/>
	<path class="st0" d="M791.2,520.8c-7.8-1.7-11.2-6.8-11.4-14.7c7.5,2.8,12.8,6.5,10.6,15.4L791.2,520.8z"/>
	<path class="st0" d="M213.3,685.7c-18.6-107.4,17.2-202.2,70.6-292.7c2.4,0.8,4.8,1.5,7.1,2.3c-9.6,21.9-19.8,43.5-28.5,65.7
		c-9.4,23.9-17.8,48.2-25.7,72.6c-7.9,24.5-11.6,50-15.9,75.4C216.6,634.5,219.1,660.2,213.3,685.7z"/>
	<path class="st0" d="M113.9,785.6c0.3-2.4,1.5-5.2,0.7-7.1c-47.7-112.1-1-210.7,42.6-309.5c4.2,10.9-2.2,19.3-6,28.2
		c-21.1,49.6-34.6,101.4-42.3,154.6c-6,41.7-1.4,82.7,13.4,122.2c4.5,12-1.7,11.3-9.6,10.5C112.5,784.5,113.9,785.6,113.9,785.6z"/>
	<path class="st0" d="M274.2,617.1c-2.7,75.9,3.3,150.4,48.2,222.7C269.3,793.9,259.6,695.9,274.2,617.1z"/>
	<path class="st0" d="M177,801.6c-19.8-37.1-26.9-76.6-22.1-118.3C158.8,723.4,169.4,762.2,177,801.6z"/>
	<path class="st0" d="M238.8,380.3c2.3,18-9.4,30.9-17.3,45.1c1.6-16.5,4.7-32.5,18-44.5C239.5,380.9,238.8,380.3,238.8,380.3z"/>
</g>
</svg>
