<?xml version="1.0" encoding="UTF-8" standalone="no"?>
<!-- Generator: Adobe Illustrator 24.1.1, SVG Export Plug-In . SVG Version: 6.00 Build 0)  -->

<svg
   xmlns:dc="http://purl.org/dc/elements/1.1/"
   xmlns:cc="http://creativecommons.org/ns#"
   xmlns:rdf="http://www.w3.org/1999/02/22-rdf-syntax-ns#"
   xmlns:svg="http://www.w3.org/2000/svg"
   xmlns="http://www.w3.org/2000/svg"
   xmlns:sodipodi="http://sodipodi.sourceforge.net/DTD/sodipodi-0.dtd"
   xmlns:inkscape="http://www.inkscape.org/namespaces/inkscape"
   version="1.1"
   id="Camada_1"
   x="0px"
   y="0px"
   viewBox="0 0 47.1 63.6"
   style="enable-background:new 0 0 47.1 63.6;"
   xml:space="preserve"
   sodipodi:docname="icone-apontar.svg"
   inkscape:version="0.92.5 (2060ec1f9f, 2020-04-08)"><metadata
   id="metadata11"><rdf:RDF><cc:Work
       rdf:about=""><dc:format>image/svg+xml</dc:format><dc:type
         rdf:resource="http://purl.org/dc/dcmitype/StillImage" /></cc:Work></rdf:RDF></metadata><defs
   id="defs9" /><sodipodi:namedview
   pagecolor="#ffffff"
   bordercolor="#666666"
   borderopacity="1"
   objecttolerance="10"
   gridtolerance="10"
   guidetolerance="10"
   inkscape:pageopacity="0"
   inkscape:pageshadow="2"
   inkscape:window-width="743"
   inkscape:window-height="480"
   id="namedview7"
   showgrid="false"
   inkscape:zoom="3.7106919"
   inkscape:cx="23.549999"
   inkscape:cy="31.799999"
   inkscape:window-x="0"
   inkscape:window-y="25"
   inkscape:window-maximized="0"
   inkscape:current-layer="Camada_1" />
<style
   type="text/css"
   id="style2">
	.st0{fill:#00833E;}
</style>
<path
   class="st0"
   d="M6.2,33.8c-0.7-0.3-1.3-0.3-1.9-0.1c-0.4,0.3-0.7,0.6-1.1,1c-0.2,0.4-0.4,0.9-0.5,1.6c-0.1,1.4,0.4,3,1.8,4.7  l13.9,20.3l17.4-0.9c0.2-0.6,0.2-1.3,0.2-1.9c-0.1-1.3-0.1-2.4,0.6-3.6c5.1-8.5,7.1-14.2,7.7-18.2c0.5-3.5,0-5.3-0.8-6.3  c-0.6-0.5-1.2-0.8-1.9-0.9c-0.8-0.1-1.5,0.1-2.4,0.4c-0.6,0.2-1.4,0-1.7-0.6c-0.5-1.2-1.2-2.1-2.1-2.5c-0.8-0.4-1.8-0.5-3.1-0.4  c-0.5,0-0.9-0.2-1.2-0.5c-1-1.4-2.1-2.1-3.1-2.4c-1.2-0.3-2.4-0.1-3.8,0.4c-0.6,0.3-1.3,0-1.6-0.8l0-0.1L19.2,5.2  C19,4,18.4,3.1,17.7,2.8c-0.4-0.2-0.8-0.3-1.1-0.3c-0.4,0-0.8,0.2-1,0.3c-0.7,0.4-1.3,1.4-1.5,2.8l0,32c0,0.6-0.5,1.3-1.2,1.2  c-0.4,0-0.6-0.1-0.9-0.3L6.2,33.8z M3.3,31.5c1.2-0.6,2.7-0.6,4.1,0.2l0.3,0.1l4,3.2l0-29.6c0.2-2.3,1.2-3.9,2.6-4.6  c0.7-0.6,1.5-0.7,2.4-0.8c0.8,0.1,1.6,0.3,2.2,0.6c1.5,0.8,2.6,2.2,2.9,4.2l3.1,16.4c1.3-0.4,2.4-0.4,3.7-0.2  c1.4,0.4,2.9,1.2,4.2,2.8c1.5-0.1,2.8,0.2,3.9,0.8c1.1,0.5,2,1.4,2.8,2.6c0.9-0.3,1.6-0.4,2.6-0.2c1.2,0,2.4,0.6,3.3,1.5l0.3,0.2  c0.9,1.3,2,3.8,1.3,8.2c-0.7,4.1-2.8,10.2-8,19c-0.3,0.7-0.4,1.5-0.3,2.3c0,1.1-0.1,2.4-0.7,3.7c-0.2,0.4-0.7,0.7-1.1,0.7l-18.8,0.9  c-0.5,0-0.9-0.1-1.2-0.5L2.5,42.6c-2-2.2-2.7-4.6-2.4-6.5c0.2-1,0.5-2.1,1.1-2.9S2.4,31.8,3.3,31.5z"
   id="path4"
   style="fill:#ffffff" />
</svg>