<?xml version="1.0" encoding="utf-8"?>
<!-- Generator: Adobe Illustrator 24.1.1, SVG Export Plug-In . SVG Version: 6.00 Build 0)  -->
<svg version="1.1" id="Camada_1" xmlns="http://www.w3.org/2000/svg" xmlns:xlink="http://www.w3.org/1999/xlink" x="0px" y="0px"
	 viewBox="0 0 30.7 30.7" style="enable-background:new 0 0 30.7 30.7;" xml:space="preserve">
<style type="text/css">
	.st0{fill:#FFFFFF;}
</style>
<path class="st0" d="M29.6,11.8c-0.8-1.6-1.9-3.1-3.3-4.3c-1.4-1.2-3.1-2.2-4.9-2.9c-1.6-0.6-3.3-0.9-5-1.1V0L6,5.3l10.4,5.3V7.2
	c5.8,0.5,10.3,4.8,10.3,10c-0.1,5.5-5.1,9.9-11.3,9.9c-5.6,0-10.3-3.7-11.1-8.4c-0.1-0.9-1-1.5-2.1-1.5l0,0c-1.3,0-2.3,1-2.1,2.1
	c0.2,1.1,0.5,2.2,1,3.2c0.8,1.6,1.9,3.1,3.3,4.3C5.7,28,7.4,29,9.2,29.6c1.9,0.7,4,1.1,6,1.1s4.1-0.4,6-1.1c1.8-0.7,3.5-1.7,4.9-2.9
	c1.4-1.2,2.6-2.7,3.3-4.3c0.8-1.7,1.2-3.5,1.2-5.3S30.5,13.5,29.6,11.8z"/>
</svg>
