<?xml version="1.0" encoding="utf-8"?>
<!-- Generator: Adobe Illustrator 24.0.0, SVG Export Plug-In . SVG Version: 6.00 Build 0)  -->
<svg version="1.1" id="Layer_1" xmlns="http://www.w3.org/2000/svg" xmlns:xlink="http://www.w3.org/1999/xlink" x="0px" y="0px"
	 viewBox="0 0 1115 768" style="enable-background:new 0 0 1115 768;" xml:space="preserve">
<style type="text/css">
	.st0{fill:#FFFFFF;}
</style>
<g id="Grupo_6" transform="translate(-224.302 -378.835)">
	<g id="Grupo_2" transform="translate(828.78 478.835)">
		<g id="Grupo_1" transform="translate(15.041 6.555)">
			<path id="Caminho_1" class="st0" d="M-284,132.5c0.5,0,1,0.3,1.2,0.7c0.4,0.5,0.5,0.9,0.4,1.1c-3.1,4.6-6.9,8.7-11.2,12.1
				c-3.1,2.5-7,3.9-11,4c-4.3,0.3-8.5-1.6-11.2-5c-2.8-4.6-4.1-9.9-3.7-15.3v-14.1c-3,9.8-8.4,18.7-15.7,25.9
				c-5.7,5.8-13.4,9.1-21.5,9.3c-5.2,0.2-10.2-1.9-13.8-5.7c-3.9-5-5.8-11.2-5.3-17.5c0.2-9.9,2.7-19.6,7.4-28.3
				c4.6-9.3,11.2-17.6,19.1-24.2c6.6-5.9,15.1-9.4,23.9-9.6c3.1,0,6.1,0.5,9,1.3c3,0.9,5.8,2.2,8.4,4c2.5-1.9,4.4-4.3,5.8-7
				c0.2-0.2,0.5-0.4,0.8-0.4c0.5,0,0.9,0.2,1.3,0.4c0.5,0.3,0.7,0.5,0.5,0.6l-0.4,65.2c-0.2,2.5,0.1,4.9,0.9,7.3
				c0.5,1.5,1.9,2.5,3.4,2.5c1.8-0.2,3.5-0.8,5-2c2.1-1.5,4.1-3.3,5.8-5.3C-284.5,132.5-284.3,132.5-284,132.5z M-332.2,129.6
				c4.1-4.8,7.3-10.3,9.3-16.2c2.1-5.7,3.3-11.6,3.4-17.7c0.3-5.1-1.2-10.2-4.2-14.3c-2.8-3.4-7.1-5.4-11.5-5.2
				c-7,0-13.4,4-16.6,10.2c-4.3,8.2-6.4,17.4-6.1,26.6c-0.3,6.1,1,12.2,3.7,17.7c1.8,3.3,5.3,5.4,9.1,5.5
				C-339.9,136-335.2,133.6-332.2,129.6L-332.2,129.6z"/>
			<path id="Caminho_2" class="st0" d="M-130,132.3c0.5,0.1,0.9,0.3,1.1,0.7c0.3,0.4,0.4,0.9,0.3,1.3c-3.3,4.6-7.1,8.7-11.5,12.3
				c-3.3,2.5-7.3,3.9-11.5,3.8c-4.3,0.4-8.4-1.5-10.9-5.1c-2.4-4.7-3.5-10-3-15.2l0.2-32.9c0-13-3-19.5-8.9-19.5
				c-4.5,0.4-8.4,3-10.6,6.9c-4,6.4-6.8,13.5-8.2,20.9c-2.3,11.1-3.5,22.3-3.6,33.6v6.8c0,2.8-3.9,4.1-11.8,4.1
				c-4.7,0-7.3-0.5-7.9-1.7l0.2-4.1c0.3-4.1,0.4-7.9,0.4-11.2l0.2-36.4c0.4-4.9-0.4-9.9-2.4-14.4c-1.3-2.8-4.1-4.6-7.1-4.7
				c-4.5,0.5-8.5,3.1-10.6,7.1c-3.9,6.3-6.7,13.3-8.1,20.6c-2.2,10.5-3.4,21.2-3.5,31.9v8.7c0,1.2-1,2.2-3,3c-2.9,0.9-6,1.3-9,1.1
				c-4.8,0-7.4-0.5-7.7-1.7v-4.8c0.3-3.9,0.4-7.4,0.4-10.6l0.4-46.2c0-6.8-1.8-10.1-5.4-10.1c-3,0-6.8,2.8-11.4,8.3
				c-0.2,0.2-0.5,0.4-0.8,0.4c-0.5,0-0.9-0.3-1.1-0.7c-0.3-0.4-0.4-1-0.3-1.5c3.2-4.9,7.3-9.1,12-12.6c3.6-2.5,7.8-3.9,12.2-3.9
				c4-0.4,7.9,1.3,10.5,4.5c2.4,4,3.6,8.7,3.4,13.4v16.8c1.9-9.6,6.2-18.6,12.3-26.2c4.7-5.8,11.7-9.2,19.1-9.2
				c5.5-0.3,10.8,2.2,14.1,6.6c3.8,6.1,5.5,13.2,5,20.3v9.1c1.9-9.8,6.1-18.9,12.3-26.7c4.6-5.8,11.5-9.2,18.9-9.3
				c12.6,0,18.8,9.1,18.8,27.3l-0.2,36.8c-0.1,6.5,1.5,9.7,5,9.7c1.6-0.1,3.2-0.7,4.4-1.8c2.1-1.7,4.2-3.5,6.1-5.5
				C-130.8,132.4-130.4,132.3-130,132.3z"/>
			<path id="Caminho_3" class="st0" d="M-109.6,145.5c-2.6-4.6-3.6-10-3-15.2l0.8-43.1c0.1-6.8-1.7-10.1-5.4-10.1
				c-3,0-6.8,2.8-11.4,8.3c-0.2,0.2-0.4,0.2-0.6,0.2c-0.5-0.1-1-0.3-1.3-0.7c-0.5-0.5-0.6-0.9-0.3-1.3c3.3-4.9,7.4-9.2,12.1-12.6
				c3.5-2.5,7.8-3.9,12.1-3.9c9.4,0,14.1,5.9,14.1,17.8l-0.8,45.5c-0.3,6.5,1.3,9.7,4.8,9.7c1.6-0.1,3-0.6,4.2-1.7
				c2.1-1.7,4.2-3.6,6.1-5.6c0.2-0.2,0.5-0.4,0.8-0.4c0.5,0,1.1,0.3,1.3,0.7c0.3,0.4,0.4,0.9,0.3,1.3c-3.2,4.6-7,8.8-11.4,12.3
				c-3.3,2.5-7.4,3.9-11.6,3.8C-103,150.9-107.1,148.9-109.6,145.5z M-113.6,42.9c-2.3-2.5-3.5-5.9-3.3-9.3
				c-0.1-3.2,1.1-6.3,3.4-8.6c2.5-2.2,5.8-3.4,9.2-3.2c3.3-0.2,6.5,0.9,8.9,3.1c2.2,2.4,3.3,5.5,3.1,8.7c0.2,3.4-0.9,6.7-3.1,9.3
				c-2.4,2.3-5.6,3.5-8.9,3.3C-107.7,46.4-111.1,45.2-113.6,42.9L-113.6,42.9z"/>
			<path id="Caminho_4" class="st0" d="M29.4,132.3c0.6,0,1.2,0.3,1.5,0.7c0.4,0.3,0.5,0.9,0.2,1.3c-3.2,4.6-7,8.8-11.4,12.3
				c-3.3,2.5-7.4,3.9-11.6,3.8c-4.2,0.4-8.3-1.6-10.8-5.1c-2.5-4.7-3.6-9.9-3.1-15.2l0.4-32.9c0-13-3.3-19.5-9.9-19.5
				c-5,0.3-9.5,3.1-12,7.4c-4.3,6.7-7.2,14.2-8.6,22.1c-2.3,11.4-3.5,23-3.4,34.7v4.1c0,1.2-1,2.3-3,3c-2.9,0.9-6,1.3-9,1.1
				c-4.8,0-7.4-0.6-7.7-1.7V144c0.3-3.9,0.4-7.4,0.4-10.6l0.4-46.2c0-6.8-1.8-10.1-5.4-10.1c-3,0-6.8,2.8-11.4,8.3
				c-0.2,0.2-0.4,0.2-0.6,0.2c-0.6,0-1.2-0.3-1.5-0.7c-0.4-0.3-0.5-0.9-0.2-1.3c3.2-4.9,7.3-9.1,12-12.6c3.6-2.5,7.8-3.9,12.2-3.9
				c4-0.4,7.9,1.3,10.5,4.5c2.4,4,3.6,8.7,3.4,13.4v19c2-10.2,6.4-19.7,12.8-27.8c4.8-6.2,12.2-9.8,20.1-9.8
				c13.3,0,19.9,9.1,19.9,27.3l-0.2,36.8c-0.1,6.5,1.4,9.7,4.8,9.7c1.7-0.1,3.4-0.7,4.7-1.9c2-1.7,3.9-3.5,5.7-5.4L29.4,132.3z"/>
			<path id="Caminho_5" class="st0" d="M130.6,132.3c0.5,0,1.1,0.3,1.3,0.7c0.3,0.4,0.4,0.9,0.3,1.3c-3.3,4.6-7.1,8.7-11.5,12.3
				c-3.3,2.5-7.3,3.9-11.5,3.8c-4.2,0.3-8.2-1.6-10.6-5.1c-2.6-4.6-3.7-9.9-3.2-15.2l0.2-32.9c0-13-3.2-19.5-9.5-19.5
				c-5,0.4-9.5,3.2-12,7.6c-4.3,6.8-7.2,14.4-8.6,22.4c-2.3,11.6-3.5,23.4-3.4,35.3v3.1c0,1.2-1,2.3-3.1,3c-2.9,0.9-6,1.3-9.1,1.1
				c-4.8,0-7.4-0.5-7.7-1.7V144c0.3-3.9,0.4-7.4,0.4-10.6l0.8-106.6c0.3-3.3-0.1-6.6-1.3-9.7c-0.9-2-2.9-3.2-5.1-3.1
				c-3.2,0.3-6.3,1.3-9.1,2.9h-0.2c-0.6,0-1.2-0.4-1.3-1c-0.3-0.7-0.2-1.2,0.3-1.5L59.6-1.5H60c0.6,0,1.2,0.2,1.7,0.6
				c0.5,0.4,0.8,0.8,0.8,1l-0.2,102.5c2-9.9,6.4-19.3,12.8-27.1c4.9-6,12.3-9.5,20.1-9.5c13.4,0,20.1,9.1,20.1,27.3l-0.4,36.8
				c-0.3,6.5,1.3,9.7,4.8,9.7c2.6,0,6.2-2.5,10.6-7.4C130.3,132.4,130.5,132.3,130.6,132.3z"/>
			<path id="Caminho_6" class="st0" d="M154.5,145.9c-5.7-3.7-10.2-9-12.9-15.2c-2.9-6.6-4.4-13.7-4.3-20.9
				c-0.1-7.9,1.7-15.7,5.4-22.7c3.4-6.5,8.6-11.8,15-15.4c6.6-3.7,14.1-5.6,21.6-5.5c10.7-0.6,21.1,3.7,28.4,11.6
				c7,8.4,10.6,19.1,10.1,30c0.2,8.3-1.9,16.6-6.1,23.8c-3.7,6.4-9.2,11.6-15.7,15c-6.4,3.4-13.6,5.1-20.9,5.1
				C167.8,151.8,160.7,149.8,154.5,145.9z M193.1,138.4c2.8-7,4.1-14.5,3.7-22.1c0.1-7.6-1-15.2-3.2-22.5
				c-1.7-6.1-4.7-11.8-8.8-16.6c-3-3.8-7.4-6-12.2-6.2c-4.7,0.1-8.9,2.9-10.8,7.3c-3,6.8-4.4,14.1-3.9,21.5
				c-0.1,7.8,1.1,15.6,3.3,23.1c1.7,6.2,4.7,12,8.8,17.1c2.8,3.8,7.2,6.2,11.9,6.4C187,146.4,191.5,143.2,193.1,138.4z"/>
		</g>
		<path id="Caminho_7" class="st0" d="M-336.1-89.1c-11.8-3.6-24-5.2-36.3-5c-28.6,0.6-56.8,6.9-82.9,18.6
			c-28.5,12-54.2,29.7-75.5,52c-26.7,26.2-45.6,59.3-54.5,95.6c-1.9,9-3,18.2-3,27.4c-0.4,18,5.2,35.7,16,50.1
			c17.2,21.9,44.2,33.8,72,31.9c33.2-0.4,65.8-9,95-24.9c21.7-10.5,41.5-24.5,58.6-41.4c2.8-2.4,4.5-5.8,4.7-9.4
			c0-5.2,6.1-22,5.3-21.1c-6.4,6.6-15.7,17.7-20.2,22.7c-14.3,15.7-31.2,28.7-50.1,38.4c-24,12.4-50.6,19-77.6,19.2
			c-20.7,0.7-41.1-5.8-57.5-18.4c-15.5-12.7-24-32-22.9-52c1.8-33.3,14.9-65,37.1-90c22.1-29.1,50.6-52.8,83.3-69.3
			c23-11.8,48.4-18.1,74.2-18.5c14.1-0.7,28.1,2.9,40.1,10.4c11.7,7.5,18.4,20.8,17.4,34.6c0.1,15.5-5.9,30.5-16.6,41.8
			c-16.9,21-42.1,33.8-69.1,35.2c-9.8,0.4-19.5-2.5-27.5-8.2c-6.6-4.4-10.6-11.7-10.7-19.7c1.5-13.5,9-25.7,20.4-33
			c4.6-1.8,7-4.4,7-7.7c0-1.6-1.1-3.3-4.1-3.3c-3,0.4-5.7,1.8-7.9,3.8c-15,9-24.9,24.4-26.9,41.7c0.2,11.5,6.4,22.2,16.4,27.9
			c11.7,7.4,25.5,11.2,39.4,10.8c33.5-0.4,64.9-16.6,84.8-43.7c9.6-12.1,14.8-27.1,14.5-42.6C-292.7-61.2-310.7-83.9-336.1-89.1z"/>
	</g>
	<g id="Grupo_3" transform="translate(828.302 498.865)">
		<path id="Caminho_8" class="st0" d="M-123.4,492.3c-0.3,0-0.6,0.2-0.8,0.4c-1.9,2-3.9,3.8-6.1,5.6c-1.2,1-2.7,1.6-4.2,1.7
			c-3.5,0-5-3.2-4.8-9.7l0.8-45.5c0-11.9-4.7-17.8-14.1-17.8c-4.3,0.1-8.6,1.4-12.1,3.9c-4.8,3.5-8.9,7.7-12.1,12.6
			c-0.3,0.4-0.2,0.9,0.3,1.3c0.3,0.4,0.8,0.7,1.3,0.7c0.2,0,0.5-0.1,0.6-0.2c4.6-5.5,8.3-8.3,11.4-8.3c3.7,0,5.5,3.4,5.4,10.1
			l-0.8,43c-0.6,5.3,0.5,10.6,3,15.2c2.5,3.5,6.6,5.4,10.9,5.1c4.2,0,8.3-1.3,11.6-3.8c4.4-3.5,8.2-7.7,11.4-12.3
			c0.1-0.5,0-1-0.3-1.3C-122.3,492.5-122.8,492.3-123.4,492.3z"/>
		<path id="Caminho_9" class="st0" d="M-159.5,385c-2.3,2.2-3.6,5.4-3.4,8.6c-0.6,6.3,4,12,10.3,12.6c0.8,0.1,1.6,0.1,2.3,0
			c3.3,0.2,6.5-1,8.9-3.3c2.2-2.6,3.3-5.9,3.1-9.3c0.2-3.2-0.9-6.3-3.1-8.7c-2.4-2.2-5.6-3.3-8.9-3.1
			C-153.7,381.6-157,382.7-159.5,385z"/>
		<path id="Caminho_10" class="st0" d="M-49.9,426.7c-2.6-0.1-5.1,0.6-7.3,2c-1.8,1.4-2.8,3.6-2.7,5.9c0,2.4,0.7,4.8,2.2,6.7
			c1.7,2.2,3.6,4.3,5.7,6.1c3.4,2.8,6.4,6,8.9,9.5c1.8,3.3,2.7,7,2.5,10.8c0.3,7.3-2.1,14.4-6.8,20c-4.1,4.9-10.2,7.8-16.6,7.8
			c-5.9,0-11.4-2.6-15.1-7.1c-4.3-5.3-6.5-11.9-6.2-18.7c0.1-6,0.7-12.1,1.8-18c1.1-6.9,2.6-13.7,4.4-20.5c0.4-1.1,0.5-1.8,0.3-2.1
			c-0.2-0.3-1-0.4-2.4-0.4h-21.1c-3.6-0.2-7.2,0.6-10.4,2.3c-2.5,1.7-4.4,4.2-5.4,7.1c-1.7,4.8-2.9,9.8-3.7,14.8
			c-0.2,0.3,0,0.8,0.3,0.9c0.3,0.2,0.7,0.3,1.1,0.3c1,0,1.5-0.3,1.5-0.8c0.3-2.7,1.8-5.2,4-6.7c3.5-1.6,7.3-2.3,11.1-2h11.2
			c0.7-0.1,1.5,0.1,2.1,0.5c0.4,0.4,0.7,0.9,0.6,1.5c-0.1,1.3-0.4,2.5-0.8,3.7c-0.6,1.9-1.9,5.7-4.1,11.2c-2.2,5.5-3.7,9.7-4.4,12.6
			c-0.9,3-1.4,6.2-1.3,9.3c0,4.9,1.4,9.7,4,13.8c2.6,4.3,6.3,7.8,10.6,10.4c4.2,2.5,9,3.8,13.9,3.8c7.1-0.1,13.9-2.5,19.5-6.9
			c6.5-5.2,11.6-12,14.7-19.7c3.9-9.2,5.8-19.1,5.6-29.1c0.3-7.1-1.1-14.3-3.9-20.8C-38.7,429.5-44.1,426.3-49.9,426.7z"/>
		<path id="Caminho_11" class="st0" d="M29,492.3c-0.3,0-0.6,0.2-0.8,0.4c-1.9,2-3.9,3.8-6.1,5.6c-1.2,1-2.7,1.6-4.2,1.7
			c-3.5,0-5-3.2-4.8-9.7l0.8-45.5c0-11.9-4.7-17.8-14.1-17.8c-4.3,0.1-8.6,1.4-12.1,3.9c-4.8,3.5-8.9,7.7-12.1,12.6
			c-0.3,0.4-0.2,0.9,0.3,1.3c0.3,0.4,0.8,0.7,1.3,0.7c0.2,0,0.5-0.1,0.6-0.2c4.6-5.5,8.3-8.3,11.4-8.3c3.7,0,5.5,3.4,5.4,10.1
			l-0.8,43c-0.6,5.3,0.5,10.6,3,15.2c2.5,3.5,6.6,5.4,10.9,5.1c4.2,0,8.3-1.3,11.6-3.8c4.4-3.5,8.2-7.7,11.4-12.3
			c0.1-0.5,0-1-0.3-1.3C30.1,492.5,29.5,492.3,29,492.3z"/>
		<path id="Caminho_12" class="st0" d="M2.1,406.2c3.3,0.2,6.5-1,8.9-3.3c2.2-2.6,3.3-5.9,3.1-9.3c0.2-3.2-0.9-6.3-3.1-8.7
			c-2.4-2.2-5.6-3.3-8.9-3.1c-3.4-0.2-6.7,1-9.2,3.2c-2.3,2.2-3.6,5.4-3.4,8.6c-0.6,6.3,4,12,10.3,12.6
			C0.5,406.3,1.3,406.3,2.1,406.2L2.1,406.2z"/>
		<path id="Caminho_13" class="st0" d="M-275.2,380.4c-20.3-4.5-40.9-6.9-61.7-6.9c-39.6-0.9-78.8,8.6-113.5,27.8
			c-32.3,18.5-48.4,40.6-48.4,66.3c0.2,7.9,3.2,15.4,8.5,21.2c4.5,5.4,10.8,8.9,17.7,10c0.6,0,2.3,0,2.3,0c-2.8-1.9-5.2-4.2-7.1-6.9
			c-3.6-4.5-5.4-10.1-5.2-15.8c0-23.9,17.6-45.5,52.8-64.8c33.6-18.3,71.3-27.7,109.5-27.4c15.2,0,30.4,1.7,45.3,5
			c16.1,4.2,30.5,13.4,41.1,26.2c15,15.7,23.5,36.5,23.5,58.2c-0.4,23-6.7,45.6-18.2,65.6c-29.8,55.3-80.5,86.2-151.9,92.9
			c-6.7,0.5-11.7,0.8-15,0.8c-26.7,2-52.4-10.1-67.9-32c32.1-27.5,60.6-59,84.8-93.7c13.5-18.4,28.6-35.6,45.1-51.3
			c11.7-14.2,25.8-26.2,41.6-35.5c7.2-2.2,11.2-3.3,11.2-7.7c-0.1-3.2-1.9-6.2-4.8-7.7c-3.7-2.1-7.9-3.2-12.1-3
			c-4.9,0-9.7,0.9-14.3,2.7c-13.6,5.1-41.3,35.1-82.9,89.8c-33.2,43.2-58.5,74-76,92.5c-4.9-13.6-8.4-27.7-10.6-42
			c-3.5-19.3-7.6-28.9-12.5-28.9c-9.5,0-19.5,12.3-29.9,37c-8.5,17.4-13.8,36.2-15.6,55.5c-0.1,6.2,1.3,12.4,4,17.9
			c2,5.1,7,8.4,12.5,8.3c10.5,0,27.1-8.7,49.7-26.2c20,22.8,49.6,34.8,79.8,32.4c34.5,0.3,68.8-6.4,100.6-19.7
			c37.3-15.1,68.2-42.6,87.5-77.9c10.6-18.2,16.5-38.7,17-59.8c-0.1-26.3-10.8-51.5-29.7-69.8C-233.3,397.1-253.2,385.6-275.2,380.4
			z M-520.8,627.6c-3.2-6.5-4.8-13.6-4.6-20.8c2-24.4,11.3-47.6,26.6-66.7c0.4,9.4,1.8,18.8,4,28c3.4,10.3,8.2,20,14.1,29.1
			C-492.3,609.5-505.8,619.8-520.8,627.6L-520.8,627.6z"/>
		<path id="Caminho_14" class="st0" d="M416.9,430c-0.1-14.8-7.5-28.7-19.8-36.9c-17.2-11-37.5-16.2-57.8-14.8
			c-40.1,0.3-79.4,11.4-113.7,32.2c-71.6-6.9-125.8-21.2-181.2-62.9l0,0c-0.9,0.5-1.9,1.1-2.8,1.5c-3.4,1.7-6.9,3.2-10.5,4.3l0,0
			c57.7,42.4,114,57.3,186,62.1c-4.9,3.1-9.8,6.4-14.7,9.9c-26.6,18-49.5,40.9-67.6,67.4c-1.7,1.8-3.5,3.6-5.5,5.2
			c-1.3,1.1-2.9,1.8-4.7,1.9c-3.3,0-4.9-3.2-4.8-9.7l0.2-36.8c0-18.2-6.6-27.3-19.9-27.3c-7.8,0-15.2,3.7-20.1,9.8
			c-6.4,8.1-10.8,17.7-12.8,27.8v-19c0.2-4.7-1-9.3-3.4-13.4c-2.5-3.1-6.4-4.8-10.5-4.5c-4.4,0-8.6,1.4-12.2,3.9
			c-4.7,3.5-8.8,7.8-12,12.6c-0.3,0.4-0.2,1,0.2,1.3c0.4,0.5,0.9,0.7,1.5,0.7c0.2,0,0.5-0.1,0.6-0.2c4.6-5.5,8.3-8.3,11.4-8.3
			c3.6,0,5.4,3.4,5.4,10.1l-0.4,46.2c0,3.2-0.1,6.7-0.4,10.6v4.8c0.3,1.1,2.8,1.7,7.7,1.7c3,0.1,6.1-0.3,9-1.1c2-0.8,3-1.8,3-3v-4.1
			c0-11.6,1.1-23.3,3.4-34.7c1.4-7.8,4.3-15.3,8.6-22.1c2.5-4.3,7-7.1,12-7.4c6.6,0,9.9,6.5,9.9,19.5l-0.4,32.9
			c-0.5,5.3,0.6,10.6,3.1,15.2c2.4,3.5,6.5,5.4,10.8,5.1c4.2,0,8.3-1.3,11.6-3.8c0.5-0.4,1-0.8,1.5-1.2c-0.9,1.7-1.7,3.5-2.5,5.3
			c-9.7,20-15,41.7-15.6,63.9c-0.7,17.8,6,35,18.5,47.7c13.1,12.7,30.6,19.8,48.9,20c3.8,0.3,9.1,0.4,16,0.4
			c62.4-0.2,122.4-24.1,167.8-66.9c32.5-28.9,48.7-59.2,48.7-90.9c0-7.1-1-14.1-3-20.9C412.4,453.5,416,442,416.9,430z M333.9,574.6
			c-38.2,37.5-89.2,59.1-142.6,60.5c-3.6,0-7.1-0.1-10.6-0.4c-33.7-1.8-50.6-19.4-50.6-52.9c1.1-24.8,8.3-49,20.9-70.4
			c18.9-35.8,46.2-66.6,79.5-89.6c2.6-1.8,5.1-3.5,7.7-5.1c19.4,0.8,40,1,62,0.9c9.7,0.2,19.4,1.3,28.9,3.3
			c13.9,4.2,26.8,11.2,37.8,20.7c10.7,9,17.6,21.7,19.2,35.6c-12.3,14.1-25.7,27.2-39.9,39.2L324.9,534c-6.8,5.8-10.3,9.3-10.3,10.3
			c0,0.2,0.1,0.4,0.3,0.4c0,0,0.1,0,0.1,0l3-0.8c25-14.2,48-31.6,68.5-51.7C383.9,518.2,366.4,545.7,333.9,574.6L333.9,574.6z
			 M401.2,452.5c-12-20.5-32.5-34.7-55.9-38.8c-12.1-3.1-24.6-4.7-37.1-5c-10.9-0.3-21.8,0.2-32.6,1.3c-9.9,1.7-20,2.4-30,2.1
			c28.2-16.9,60.4-25.8,93.3-25.9c27.6,0,46.9,7.6,57.8,22.8c5.1,6.6,8.1,14.7,8.4,23C405.2,439.1,403.9,446,401.2,452.5
			L401.2,452.5z"/>
		<path id="Caminho_15" class="st0" d="M-207.2,246.7L-207.2,246.7c31.5-14.5,67-17.3,100.2-7.7l0,0c6.4-4,13.5-6.8,20.9-8.2l0,0
			v-2.6l0,0c-49.8-23.4-112-12.7-160.1,15.3c-138.3,73.3-274.4,108.7-347-53.8c-0.2-0.6-0.8-0.9-1.4-0.7c-0.6,0.2-0.9,0.8-0.7,1.4
			C-548.5,394.8-342.4,321.5-207.2,246.7z"/>
	</g>
	<g id="Grupo_4" transform="translate(859.334 498.458)">
		<path id="Caminho_16" class="st0" d="M-61.6,317.1c0.5,0,1.1,0.3,1.3,0.7c0.3,0.4,0.4,0.9,0.1,1.3c-3.2,4.6-7,8.8-11.3,12.3
			c-3.3,2.5-7.3,3.9-11.5,3.8c-4.3,0.3-8.4-1.6-10.9-5.1c-2.6-4.6-3.7-9.9-3.2-15.2l0.2-14.3c-3.3,9.5-8.3,18.4-14.9,26
			c-5.1,5.9-12.5,9.4-20.3,9.4c-6.5,0.1-12.7-2.5-17.2-7.1c-5.2-5.9-7.9-13.6-7.3-21.4c0-9.7,2.6-19.2,7.4-27.6
			c4.7-8.4,11.2-15.7,19.1-21.1c7-5,15.3-7.8,23.9-8c3.2,0,6.3,0.5,9.3,1.5l0.4-40.8c0.3-3.3-0.1-6.6-1.2-9.6c-0.9-1.9-2.8-3.2-5-3
			c-3.2,0.2-6.3,1.1-9.1,2.7h-0.2c-0.6,0-1.2-0.4-1.3-1c-0.3-0.7-0.3-1.2,0.1-1.5l32.7-15.7h0.4c0.6,0,1.2,0.2,1.7,0.6
			c0.5,0.4,0.8,0.8,0.8,1l-0.2,130c-0.3,2.6,0,5.2,1,7.6c0.7,1.3,2,2.2,3.5,2.2c1.7,0,3.4-0.6,4.8-1.8c2.1-1.7,4-3.5,5.8-5.5
			L-61.6,317.1z M-110.6,315.8c4-4.1,7.1-9,9.2-14.3c2.2-5.3,3.8-10.9,4.5-16.6l0.2-9.1c-0.7-4.5-3.2-8.4-6.9-11
			c-3.9-2.6-8.5-4-13.1-3.9c-6.6-0.3-12.9,3-16.3,8.7c-4.1,7.3-6,15.6-5.6,24c0,18.6,5,27.9,15.1,28
			C-118.5,321.6-113.9,319.5-110.6,315.8L-110.6,315.8z"/>
		<path id="Caminho_17" class="st0" d="M-40.6,330.6c-5.7-3.7-10.2-9-12.9-15.2c-2.9-6.6-4.4-13.7-4.3-20.9
			c-0.1-7.9,1.7-15.7,5.4-22.7c3.4-6.5,8.6-11.8,15-15.4c6.6-3.7,14.1-5.6,21.6-5.5c10.7-0.6,21.1,3.7,28.4,11.6
			c7,8.4,10.6,19.1,10.1,30c0.2,8.3-1.9,16.6-6.1,23.8c-3.7,6.4-9.2,11.6-15.7,15c-6.4,3.4-13.6,5.1-20.9,5.1
			C-27.4,336.5-34.5,334.5-40.6,330.6z M-2,323.2c2.8-7,4.1-14.5,3.7-22.1c0.1-7.6-1-15.2-3.2-22.5c-1.7-6.1-4.7-11.8-8.8-16.6
			c-3-3.8-7.4-6-12.2-6.2c-4.7,0.1-8.9,2.9-10.8,7.3c-3,6.8-4.4,14.1-3.9,21.5c-0.1,7.8,1.1,15.6,3.3,23.1c1.7,6.2,4.7,12,8.8,17.1
			c2.8,3.8,7.2,6.2,11.9,6.4C-8.2,331.1-3.7,327.9-2,323.2L-2,323.2z"/>
	</g>
	<g id="Grupo_5" transform="translate(876.213 478.835)">
		<path id="Caminho_18" class="st0" d="M436.1-9.7c-8.5,7-18.2,12.3-28.7,15.7c-8.5,2.4-13.3,1.8-14.3-1.8
			c-0.6-2.3,3.8-4.9,13.2-7.8c7-1.8,13.7-4.9,19.6-9.1c9.9-8.1,14.1-21.3,10.5-33.6c-2.1-7-5.9-13.5-10.9-18.8
			c-15.4-15.5-42.9-17.8-82.5-6.8c-23.2,6.5-45.4,16.4-65.7,29.4c-19.7,12-36.3,28.4-48.7,47.8c-10.2,13.1-14.6,29.9-12.1,46.3
			c5.2,18.7,27.5,27.3,66.9,25.7l60-5.2c18.7-2.5,37.7-1.4,56,3.2c16.2,3.8,28.9,16.4,33,32.5c1.9,7.4,2.8,15.1,2.6,22.7
			c-0.7,37.7-19.9,71.6-57.6,101.8c-35.5,27.7-76.4,47.7-120,58.8c-12.1,3.4-24.4,6.2-36.8,8.1c14.7,3.2,29.7,4.4,44.7,3.7
			c1.4,0,2.2,0.4,2.5,1.4c0.8,2.9-2.2,5.3-8.9,7.2c-19.2,2.8-38.8-0.7-55.9-10c-22.1,3.8-44.9,1.9-66.1-5.6
			c-12-5.7-22.7-13.7-31.5-23.5c-9.4-9.1-16.5-20.4-20.5-32.8c-2.9-9.2-3.3-19-1.1-28.3c2.2-16.6,13.7-30.5,29.6-35.8
			c11.3-3.1,20.5,4.5,27.7,23c14.7,35.5,23.5,55.6,26.6,60.3c8.8,14.1,21.1,25.5,35.8,33.3c15.3-1,30.4-3.6,45.2-7.8
			c35.2-9.8,68-26.6,96.7-49.2c27-19.3,46.8-47.2,56.1-79c3.2-9.4,3.9-19.4,1.8-29.1c-4.2-15.1-20.8-23.2-50-24.2l-90.4,4.2
			c-16.4,1.1-32.8-2.1-47.6-9.2c-12.1-5.6-21.2-16.2-24.9-29c-5.4-19.3,1.4-42,20.2-68c15.7-21.3,35.3-39.3,57.8-53.2
			c23.1-15,48.3-26.5,74.9-34c21.5-6.7,44.2-8.9,66.6-6.5c20.7,1.1,38.5,15,44.5,34.8C459.8-39.7,452.4-19.8,436.1-9.7z
			 M184.6,292.1c-26.8-18.4-47.4-44.4-59.2-74.7c-8.5-19.5-14.1-28.9-16.6-28.2c-2.6,0.7-4.9,2.2-6.6,4.2c-2.3,3.3-3.8,7.2-4.1,11.3
			c-0.8,6.7-0.2,13.4,1.8,19.8c6.3,24,22.1,44.5,43.8,56.6C156.1,288.1,170.2,291.9,184.6,292.1L184.6,292.1z"/>
	</g>
</g>
</svg>
